%!PS-Adobe-2.0 EPSF-2.0
%%Title: LER.tex
%%Creator: gnuplot 5.2 patchlevel 2
%%CreationDate: Tue Aug 11 12:58:23 2020
%%DocumentFonts: 
%%BoundingBox: 50 50 410 302
%%EndComments
%%BeginProlog
/gnudict 256 dict def
gnudict begin
%
% The following true/false flags may be edited by hand if desired.
% The unit line width and grayscale image gamma correction may also be changed.
%
/Color true def
/Blacktext false def
/Solid false def
/Dashlength 1 def
/Landscape false def
/Level1 false def
/Level3 false def
/Rounded false def
/ClipToBoundingBox false def
/SuppressPDFMark false def
/TransparentPatterns false def
/gnulinewidth 5.000 def
/userlinewidth gnulinewidth def
/Gamma 1.0 def
/BackgroundColor {-1.000 -1.000 -1.000} def
%
/vshift -73 def
/dl1 {
  10.0 Dashlength userlinewidth gnulinewidth div mul mul mul
  Rounded { currentlinewidth 0.75 mul sub dup 0 le { pop 0.01 } if } if
} def
/dl2 {
  10.0 Dashlength userlinewidth gnulinewidth div mul mul mul
  Rounded { currentlinewidth 0.75 mul add } if
} def
/hpt_ 31.5 def
/vpt_ 31.5 def
/hpt hpt_ def
/vpt vpt_ def
/doclip {
  ClipToBoundingBox {
    newpath 50 50 moveto 410 50 lineto 410 302 lineto 50 302 lineto closepath
    clip
  } if
} def
%
% Gnuplot Prolog Version 5.1 (Oct 2015)
%
%/SuppressPDFMark true def
%
/M {moveto} bind def
/L {lineto} bind def
/R {rmoveto} bind def
/V {rlineto} bind def
/N {newpath moveto} bind def
/Z {closepath} bind def
/C {setrgbcolor} bind def
/f {rlineto fill} bind def
/g {setgray} bind def
/Gshow {show} def   % May be redefined later in the file to support UTF-8
/vpt2 vpt 2 mul def
/hpt2 hpt 2 mul def
/Lshow {currentpoint stroke M 0 vshift R 
	Blacktext {gsave 0 setgray textshow grestore} {textshow} ifelse} def
/Rshow {currentpoint stroke M dup stringwidth pop neg vshift R
	Blacktext {gsave 0 setgray textshow grestore} {textshow} ifelse} def
/Cshow {currentpoint stroke M dup stringwidth pop -2 div vshift R 
	Blacktext {gsave 0 setgray textshow grestore} {textshow} ifelse} def
/UP {dup vpt_ mul /vpt exch def hpt_ mul /hpt exch def
  /hpt2 hpt 2 mul def /vpt2 vpt 2 mul def} def
/DL {Color {setrgbcolor Solid {pop []} if 0 setdash}
 {pop pop pop 0 setgray Solid {pop []} if 0 setdash} ifelse} def
/BL {stroke userlinewidth 2 mul setlinewidth
	Rounded {1 setlinejoin 1 setlinecap} if} def
/AL {stroke userlinewidth 2 div setlinewidth
	Rounded {1 setlinejoin 1 setlinecap} if} def
/UL {dup gnulinewidth mul /userlinewidth exch def
	dup 1 lt {pop 1} if 10 mul /udl exch def} def
/PL {stroke userlinewidth setlinewidth
	Rounded {1 setlinejoin 1 setlinecap} if} def
3.8 setmiterlimit
% Classic Line colors (version 5.0)
/LCw {1 1 1} def
/LCb {0 0 0} def
/LCa {0 0 0} def
/LC0 {1 0 0} def
/LC1 {0 1 0} def
/LC2 {0 0 1} def
/LC3 {1 0 1} def
/LC4 {0 1 1} def
/LC5 {1 1 0} def
/LC6 {0 0 0} def
/LC7 {1 0.3 0} def
/LC8 {0.5 0.5 0.5} def
% Default dash patterns (version 5.0)
/LTB {BL [] LCb DL} def
/LTw {PL [] 1 setgray} def
/LTb {PL [] LCb DL} def
/LTa {AL [1 udl mul 2 udl mul] 0 setdash LCa setrgbcolor} def
/LT0 {PL [] LC0 DL} def
/LT1 {PL [2 dl1 3 dl2] LC1 DL} def
/LT2 {PL [1 dl1 1.5 dl2] LC2 DL} def
/LT3 {PL [6 dl1 2 dl2 1 dl1 2 dl2] LC3 DL} def
/LT4 {PL [1 dl1 2 dl2 6 dl1 2 dl2 1 dl1 2 dl2] LC4 DL} def
/LT5 {PL [4 dl1 2 dl2] LC5 DL} def
/LT6 {PL [1.5 dl1 1.5 dl2 1.5 dl1 1.5 dl2 1.5 dl1 6 dl2] LC6 DL} def
/LT7 {PL [3 dl1 3 dl2 1 dl1 3 dl2] LC7 DL} def
/LT8 {PL [2 dl1 2 dl2 2 dl1 6 dl2] LC8 DL} def
/SL {[] 0 setdash} def
/Pnt {stroke [] 0 setdash gsave 1 setlinecap M 0 0 V stroke grestore} def
/Dia {stroke [] 0 setdash 2 copy vpt add M
  hpt neg vpt neg V hpt vpt neg V
  hpt vpt V hpt neg vpt V closepath stroke
  Pnt} def
/Pls {stroke [] 0 setdash vpt sub M 0 vpt2 V
  currentpoint stroke M
  hpt neg vpt neg R hpt2 0 V stroke
 } def
/Box {stroke [] 0 setdash 2 copy exch hpt sub exch vpt add M
  0 vpt2 neg V hpt2 0 V 0 vpt2 V
  hpt2 neg 0 V closepath stroke
  Pnt} def
/Crs {stroke [] 0 setdash exch hpt sub exch vpt add M
  hpt2 vpt2 neg V currentpoint stroke M
  hpt2 neg 0 R hpt2 vpt2 V stroke} def
/TriU {stroke [] 0 setdash 2 copy vpt 1.12 mul add M
  hpt neg vpt -1.62 mul V
  hpt 2 mul 0 V
  hpt neg vpt 1.62 mul V closepath stroke
  Pnt} def
/Star {2 copy Pls Crs} def
/BoxF {stroke [] 0 setdash exch hpt sub exch vpt add M
  0 vpt2 neg V hpt2 0 V 0 vpt2 V
  hpt2 neg 0 V closepath fill} def
/TriUF {stroke [] 0 setdash vpt 1.12 mul add M
  hpt neg vpt -1.62 mul V
  hpt 2 mul 0 V
  hpt neg vpt 1.62 mul V closepath fill} def
/TriD {stroke [] 0 setdash 2 copy vpt 1.12 mul sub M
  hpt neg vpt 1.62 mul V
  hpt 2 mul 0 V
  hpt neg vpt -1.62 mul V closepath stroke
  Pnt} def
/TriDF {stroke [] 0 setdash vpt 1.12 mul sub M
  hpt neg vpt 1.62 mul V
  hpt 2 mul 0 V
  hpt neg vpt -1.62 mul V closepath fill} def
/DiaF {stroke [] 0 setdash vpt add M
  hpt neg vpt neg V hpt vpt neg V
  hpt vpt V hpt neg vpt V closepath fill} def
/Pent {stroke [] 0 setdash 2 copy gsave
  translate 0 hpt M 4 {72 rotate 0 hpt L} repeat
  closepath stroke grestore Pnt} def
/PentF {stroke [] 0 setdash gsave
  translate 0 hpt M 4 {72 rotate 0 hpt L} repeat
  closepath fill grestore} def
/Circle {stroke [] 0 setdash 2 copy
  hpt 0 360 arc stroke Pnt} def
/CircleF {stroke [] 0 setdash hpt 0 360 arc fill} def
/C0 {BL [] 0 setdash 2 copy moveto vpt 90 450 arc} bind def
/C1 {BL [] 0 setdash 2 copy moveto
	2 copy vpt 0 90 arc closepath fill
	vpt 0 360 arc closepath} bind def
/C2 {BL [] 0 setdash 2 copy moveto
	2 copy vpt 90 180 arc closepath fill
	vpt 0 360 arc closepath} bind def
/C3 {BL [] 0 setdash 2 copy moveto
	2 copy vpt 0 180 arc closepath fill
	vpt 0 360 arc closepath} bind def
/C4 {BL [] 0 setdash 2 copy moveto
	2 copy vpt 180 270 arc closepath fill
	vpt 0 360 arc closepath} bind def
/C5 {BL [] 0 setdash 2 copy moveto
	2 copy vpt 0 90 arc
	2 copy moveto
	2 copy vpt 180 270 arc closepath fill
	vpt 0 360 arc} bind def
/C6 {BL [] 0 setdash 2 copy moveto
	2 copy vpt 90 270 arc closepath fill
	vpt 0 360 arc closepath} bind def
/C7 {BL [] 0 setdash 2 copy moveto
	2 copy vpt 0 270 arc closepath fill
	vpt 0 360 arc closepath} bind def
/C8 {BL [] 0 setdash 2 copy moveto
	2 copy vpt 270 360 arc closepath fill
	vpt 0 360 arc closepath} bind def
/C9 {BL [] 0 setdash 2 copy moveto
	2 copy vpt 270 450 arc closepath fill
	vpt 0 360 arc closepath} bind def
/C10 {BL [] 0 setdash 2 copy 2 copy moveto vpt 270 360 arc closepath fill
	2 copy moveto
	2 copy vpt 90 180 arc closepath fill
	vpt 0 360 arc closepath} bind def
/C11 {BL [] 0 setdash 2 copy moveto
	2 copy vpt 0 180 arc closepath fill
	2 copy moveto
	2 copy vpt 270 360 arc closepath fill
	vpt 0 360 arc closepath} bind def
/C12 {BL [] 0 setdash 2 copy moveto
	2 copy vpt 180 360 arc closepath fill
	vpt 0 360 arc closepath} bind def
/C13 {BL [] 0 setdash 2 copy moveto
	2 copy vpt 0 90 arc closepath fill
	2 copy moveto
	2 copy vpt 180 360 arc closepath fill
	vpt 0 360 arc closepath} bind def
/C14 {BL [] 0 setdash 2 copy moveto
	2 copy vpt 90 360 arc closepath fill
	vpt 0 360 arc} bind def
/C15 {BL [] 0 setdash 2 copy vpt 0 360 arc closepath fill
	vpt 0 360 arc closepath} bind def
/Rec {newpath 4 2 roll moveto 1 index 0 rlineto 0 exch rlineto
	neg 0 rlineto closepath} bind def
/Square {dup Rec} bind def
/Bsquare {vpt sub exch vpt sub exch vpt2 Square} bind def
/S0 {BL [] 0 setdash 2 copy moveto 0 vpt rlineto BL Bsquare} bind def
/S1 {BL [] 0 setdash 2 copy vpt Square fill Bsquare} bind def
/S2 {BL [] 0 setdash 2 copy exch vpt sub exch vpt Square fill Bsquare} bind def
/S3 {BL [] 0 setdash 2 copy exch vpt sub exch vpt2 vpt Rec fill Bsquare} bind def
/S4 {BL [] 0 setdash 2 copy exch vpt sub exch vpt sub vpt Square fill Bsquare} bind def
/S5 {BL [] 0 setdash 2 copy 2 copy vpt Square fill
	exch vpt sub exch vpt sub vpt Square fill Bsquare} bind def
/S6 {BL [] 0 setdash 2 copy exch vpt sub exch vpt sub vpt vpt2 Rec fill Bsquare} bind def
/S7 {BL [] 0 setdash 2 copy exch vpt sub exch vpt sub vpt vpt2 Rec fill
	2 copy vpt Square fill Bsquare} bind def
/S8 {BL [] 0 setdash 2 copy vpt sub vpt Square fill Bsquare} bind def
/S9 {BL [] 0 setdash 2 copy vpt sub vpt vpt2 Rec fill Bsquare} bind def
/S10 {BL [] 0 setdash 2 copy vpt sub vpt Square fill 2 copy exch vpt sub exch vpt Square fill
	Bsquare} bind def
/S11 {BL [] 0 setdash 2 copy vpt sub vpt Square fill 2 copy exch vpt sub exch vpt2 vpt Rec fill
	Bsquare} bind def
/S12 {BL [] 0 setdash 2 copy exch vpt sub exch vpt sub vpt2 vpt Rec fill Bsquare} bind def
/S13 {BL [] 0 setdash 2 copy exch vpt sub exch vpt sub vpt2 vpt Rec fill
	2 copy vpt Square fill Bsquare} bind def
/S14 {BL [] 0 setdash 2 copy exch vpt sub exch vpt sub vpt2 vpt Rec fill
	2 copy exch vpt sub exch vpt Square fill Bsquare} bind def
/S15 {BL [] 0 setdash 2 copy Bsquare fill Bsquare} bind def
/D0 {gsave translate 45 rotate 0 0 S0 stroke grestore} bind def
/D1 {gsave translate 45 rotate 0 0 S1 stroke grestore} bind def
/D2 {gsave translate 45 rotate 0 0 S2 stroke grestore} bind def
/D3 {gsave translate 45 rotate 0 0 S3 stroke grestore} bind def
/D4 {gsave translate 45 rotate 0 0 S4 stroke grestore} bind def
/D5 {gsave translate 45 rotate 0 0 S5 stroke grestore} bind def
/D6 {gsave translate 45 rotate 0 0 S6 stroke grestore} bind def
/D7 {gsave translate 45 rotate 0 0 S7 stroke grestore} bind def
/D8 {gsave translate 45 rotate 0 0 S8 stroke grestore} bind def
/D9 {gsave translate 45 rotate 0 0 S9 stroke grestore} bind def
/D10 {gsave translate 45 rotate 0 0 S10 stroke grestore} bind def
/D11 {gsave translate 45 rotate 0 0 S11 stroke grestore} bind def
/D12 {gsave translate 45 rotate 0 0 S12 stroke grestore} bind def
/D13 {gsave translate 45 rotate 0 0 S13 stroke grestore} bind def
/D14 {gsave translate 45 rotate 0 0 S14 stroke grestore} bind def
/D15 {gsave translate 45 rotate 0 0 S15 stroke grestore} bind def
/DiaE {stroke [] 0 setdash vpt add M
  hpt neg vpt neg V hpt vpt neg V
  hpt vpt V hpt neg vpt V closepath stroke} def
/BoxE {stroke [] 0 setdash exch hpt sub exch vpt add M
  0 vpt2 neg V hpt2 0 V 0 vpt2 V
  hpt2 neg 0 V closepath stroke} def
/TriUE {stroke [] 0 setdash vpt 1.12 mul add M
  hpt neg vpt -1.62 mul V
  hpt 2 mul 0 V
  hpt neg vpt 1.62 mul V closepath stroke} def
/TriDE {stroke [] 0 setdash vpt 1.12 mul sub M
  hpt neg vpt 1.62 mul V
  hpt 2 mul 0 V
  hpt neg vpt -1.62 mul V closepath stroke} def
/PentE {stroke [] 0 setdash gsave
  translate 0 hpt M 4 {72 rotate 0 hpt L} repeat
  closepath stroke grestore} def
/CircE {stroke [] 0 setdash 
  hpt 0 360 arc stroke} def
/Opaque {gsave closepath 1 setgray fill grestore 0 setgray closepath} def
/DiaW {stroke [] 0 setdash vpt add M
  hpt neg vpt neg V hpt vpt neg V
  hpt vpt V hpt neg vpt V Opaque stroke} def
/BoxW {stroke [] 0 setdash exch hpt sub exch vpt add M
  0 vpt2 neg V hpt2 0 V 0 vpt2 V
  hpt2 neg 0 V Opaque stroke} def
/TriUW {stroke [] 0 setdash vpt 1.12 mul add M
  hpt neg vpt -1.62 mul V
  hpt 2 mul 0 V
  hpt neg vpt 1.62 mul V Opaque stroke} def
/TriDW {stroke [] 0 setdash vpt 1.12 mul sub M
  hpt neg vpt 1.62 mul V
  hpt 2 mul 0 V
  hpt neg vpt -1.62 mul V Opaque stroke} def
/PentW {stroke [] 0 setdash gsave
  translate 0 hpt M 4 {72 rotate 0 hpt L} repeat
  Opaque stroke grestore} def
/CircW {stroke [] 0 setdash 
  hpt 0 360 arc Opaque stroke} def
/BoxFill {gsave Rec 1 setgray fill grestore} def
/Density {
  /Fillden exch def
  currentrgbcolor
  /ColB exch def /ColG exch def /ColR exch def
  /ColR ColR Fillden mul Fillden sub 1 add def
  /ColG ColG Fillden mul Fillden sub 1 add def
  /ColB ColB Fillden mul Fillden sub 1 add def
  ColR ColG ColB setrgbcolor} def
/BoxColFill {gsave Rec PolyFill} def
/PolyFill {gsave Density fill grestore grestore} def
/h {rlineto rlineto rlineto gsave closepath fill grestore} bind def
%
% PostScript Level 1 Pattern Fill routine for rectangles
% Usage: x y w h s a XX PatternFill
%	x,y = lower left corner of box to be filled
%	w,h = width and height of box
%	  a = angle in degrees between lines and x-axis
%	 XX = 0/1 for no/yes cross-hatch
%
/PatternFill {gsave /PFa [ 9 2 roll ] def
  PFa 0 get PFa 2 get 2 div add PFa 1 get PFa 3 get 2 div add translate
  PFa 2 get -2 div PFa 3 get -2 div PFa 2 get PFa 3 get Rec
  TransparentPatterns {} {gsave 1 setgray fill grestore} ifelse
  clip
  currentlinewidth 0.5 mul setlinewidth
  /PFs PFa 2 get dup mul PFa 3 get dup mul add sqrt def
  0 0 M PFa 5 get rotate PFs -2 div dup translate
  0 1 PFs PFa 4 get div 1 add floor cvi
	{PFa 4 get mul 0 M 0 PFs V} for
  0 PFa 6 get ne {
	0 1 PFs PFa 4 get div 1 add floor cvi
	{PFa 4 get mul 0 2 1 roll M PFs 0 V} for
 } if
  stroke grestore} def
%
/languagelevel where
 {pop languagelevel} {1} ifelse
dup 2 lt
	{/InterpretLevel1 true def
	 /InterpretLevel3 false def}
	{/InterpretLevel1 Level1 def
	 2 gt
	    {/InterpretLevel3 Level3 def}
	    {/InterpretLevel3 false def}
	 ifelse }
 ifelse
%
% PostScript level 2 pattern fill definitions
%
/Level2PatternFill {
/Tile8x8 {/PaintType 2 /PatternType 1 /TilingType 1 /BBox [0 0 8 8] /XStep 8 /YStep 8}
	bind def
/KeepColor {currentrgbcolor [/Pattern /DeviceRGB] setcolorspace} bind def
<< Tile8x8
 /PaintProc {0.5 setlinewidth pop 0 0 M 8 8 L 0 8 M 8 0 L stroke} 
>> matrix makepattern
/Pat1 exch def
<< Tile8x8
 /PaintProc {0.5 setlinewidth pop 0 0 M 8 8 L 0 8 M 8 0 L stroke
	0 4 M 4 8 L 8 4 L 4 0 L 0 4 L stroke}
>> matrix makepattern
/Pat2 exch def
<< Tile8x8
 /PaintProc {0.5 setlinewidth pop 0 0 M 0 8 L
	8 8 L 8 0 L 0 0 L fill}
>> matrix makepattern
/Pat3 exch def
<< Tile8x8
 /PaintProc {0.5 setlinewidth pop -4 8 M 8 -4 L
	0 12 M 12 0 L stroke}
>> matrix makepattern
/Pat4 exch def
<< Tile8x8
 /PaintProc {0.5 setlinewidth pop -4 0 M 8 12 L
	0 -4 M 12 8 L stroke}
>> matrix makepattern
/Pat5 exch def
<< Tile8x8
 /PaintProc {0.5 setlinewidth pop -2 8 M 4 -4 L
	0 12 M 8 -4 L 4 12 M 10 0 L stroke}
>> matrix makepattern
/Pat6 exch def
<< Tile8x8
 /PaintProc {0.5 setlinewidth pop -2 0 M 4 12 L
	0 -4 M 8 12 L 4 -4 M 10 8 L stroke}
>> matrix makepattern
/Pat7 exch def
<< Tile8x8
 /PaintProc {0.5 setlinewidth pop 8 -2 M -4 4 L
	12 0 M -4 8 L 12 4 M 0 10 L stroke}
>> matrix makepattern
/Pat8 exch def
<< Tile8x8
 /PaintProc {0.5 setlinewidth pop 0 -2 M 12 4 L
	-4 0 M 12 8 L -4 4 M 8 10 L stroke}
>> matrix makepattern
/Pat9 exch def
/Pattern1 {PatternBgnd KeepColor Pat1 setpattern} bind def
/Pattern2 {PatternBgnd KeepColor Pat2 setpattern} bind def
/Pattern3 {PatternBgnd KeepColor Pat3 setpattern} bind def
/Pattern4 {PatternBgnd KeepColor Landscape {Pat5} {Pat4} ifelse setpattern} bind def
/Pattern5 {PatternBgnd KeepColor Landscape {Pat4} {Pat5} ifelse setpattern} bind def
/Pattern6 {PatternBgnd KeepColor Landscape {Pat9} {Pat6} ifelse setpattern} bind def
/Pattern7 {PatternBgnd KeepColor Landscape {Pat8} {Pat7} ifelse setpattern} bind def
} def
%
%
%End of PostScript Level 2 code
%
/PatternBgnd {
  TransparentPatterns {} {gsave 1 setgray fill grestore} ifelse
} def
%
% Substitute for Level 2 pattern fill codes with
% grayscale if Level 2 support is not selected.
%
/Level1PatternFill {
/Pattern1 {0.250 Density} bind def
/Pattern2 {0.500 Density} bind def
/Pattern3 {0.750 Density} bind def
/Pattern4 {0.125 Density} bind def
/Pattern5 {0.375 Density} bind def
/Pattern6 {0.625 Density} bind def
/Pattern7 {0.875 Density} bind def
} def
%
% Now test for support of Level 2 code
%
Level1 {Level1PatternFill} {Level2PatternFill} ifelse
%
/Symbol-Oblique /Symbol findfont [1 0 .167 1 0 0] makefont
dup length dict begin {1 index /FID eq {pop pop} {def} ifelse} forall
currentdict end definefont pop
%
Level1 SuppressPDFMark or 
{} {
/SDict 10 dict def
systemdict /pdfmark known not {
  userdict /pdfmark systemdict /cleartomark get put
} if
SDict begin [
  /Title (LER.tex)
  /Subject (gnuplot plot)
  /Creator (gnuplot 5.2 patchlevel 2)
%  /Producer (gnuplot)
%  /Keywords ()
  /CreationDate (Tue Aug 11 12:58:23 2020)
  /DOCINFO pdfmark
end
} ifelse
%
% Support for boxed text - Ethan A Merritt Sep 2016
%
/InitTextBox { userdict /TBy2 3 -1 roll put userdict /TBx2 3 -1 roll put
           userdict /TBy1 3 -1 roll put userdict /TBx1 3 -1 roll put
	   /Boxing true def } def
/ExtendTextBox { dup type /stringtype eq
    { Boxing { gsave dup false charpath pathbbox
      dup TBy2 gt {userdict /TBy2 3 -1 roll put} {pop} ifelse
      dup TBx2 gt {userdict /TBx2 3 -1 roll put} {pop} ifelse
      dup TBy1 lt {userdict /TBy1 3 -1 roll put} {pop} ifelse
      dup TBx1 lt {userdict /TBx1 3 -1 roll put} {pop} ifelse
      grestore } if }
    {} ifelse} def
/PopTextBox { newpath TBx1 TBxmargin sub TBy1 TBymargin sub M
               TBx1 TBxmargin sub TBy2 TBymargin add L
	       TBx2 TBxmargin add TBy2 TBymargin add L
	       TBx2 TBxmargin add TBy1 TBymargin sub L closepath } def
/DrawTextBox { PopTextBox stroke /Boxing false def} def
/FillTextBox { gsave PopTextBox fill grestore /Boxing false def} def
0 0 0 0 InitTextBox
/TBxmargin 20 def
/TBymargin 20 def
/Boxing false def
/textshow { ExtendTextBox Gshow } def
%
end
%%EndProlog
%%Page: 1 1
gnudict begin
gsave
doclip
50 50 translate
0.050 0.050 scale
0 setgray
newpath
1.000 UL
LTb
LCb setrgbcolor
[] 0 setdash
1342 704 M
63 0 V
5398 0 R
-63 0 V
stroke
LTb
1342 1527 M
63 0 V
5398 0 R
-63 0 V
stroke
1342 2350 M
63 0 V
5398 0 R
-63 0 V
stroke
1342 3173 M
63 0 V
5398 0 R
-63 0 V
stroke
1342 3996 M
63 0 V
5398 0 R
-63 0 V
stroke
1342 4819 M
63 0 V
5398 0 R
-63 0 V
stroke
1630 704 M
0 63 V
0 4052 R
0 -63 V
stroke
2205 704 M
0 63 V
0 4052 R
0 -63 V
stroke
2779 704 M
0 63 V
0 4052 R
0 -63 V
stroke
3354 704 M
0 63 V
0 4052 R
0 -63 V
stroke
3929 704 M
0 63 V
0 4052 R
0 -63 V
stroke
4504 704 M
0 63 V
0 4052 R
0 -63 V
stroke
5079 704 M
0 63 V
0 4052 R
0 -63 V
stroke
5653 704 M
0 63 V
0 4052 R
0 -63 V
stroke
6228 704 M
0 63 V
0 4052 R
0 -63 V
stroke
6803 704 M
0 63 V
0 4052 R
0 -63 V
stroke
1.000 UL
LTb
1342 4819 N
0 -4115 V
5461 0 V
0 4115 V
-5461 0 V
Z stroke
1.000 UP
1.000 UL
LTb
% Begin plot #1
1.500 UL
LTb
LT3
0.00 0.15 0.68 C 1342 3678 M
55 0 V
55 0 V
55 0 V
56 0 V
55 0 V
55 0 V
55 0 V
55 0 V
55 0 V
56 0 V
55 0 V
55 0 V
55 0 V
55 0 V
55 0 V
56 0 V
55 0 V
55 0 V
55 0 V
55 0 V
55 0 V
56 0 V
55 0 V
55 0 V
55 0 V
55 0 V
55 0 V
56 0 V
55 0 V
55 0 V
55 0 V
55 0 V
55 0 V
55 0 V
56 0 V
55 0 V
55 0 V
55 0 V
55 0 V
55 0 V
56 0 V
55 0 V
55 0 V
55 0 V
55 0 V
55 0 V
56 0 V
55 0 V
55 0 V
55 0 V
55 0 V
55 0 V
56 0 V
55 0 V
55 0 V
55 0 V
55 0 V
55 0 V
56 0 V
55 0 V
55 0 V
55 0 V
55 0 V
55 0 V
56 0 V
55 0 V
55 0 V
55 0 V
55 0 V
55 0 V
55 0 V
56 0 V
55 0 V
55 0 V
55 0 V
55 0 V
55 0 V
56 0 V
55 0 V
55 0 V
55 0 V
55 0 V
55 0 V
56 0 V
55 0 V
55 0 V
55 0 V
55 0 V
55 0 V
56 0 V
55 0 V
55 0 V
55 0 V
55 0 V
55 0 V
56 0 V
55 0 V
55 0 V
55 0 V
stroke
LTw
% End plot #1
% Begin plot #2
1.500 UL
LTb
LCb setrgbcolor
LT3
0.00 0.68 0.08 C 1342 1301 M
55 0 V
55 0 V
55 0 V
56 0 V
55 0 V
55 0 V
55 0 V
55 0 V
55 0 V
56 0 V
55 0 V
55 0 V
55 0 V
55 0 V
55 0 V
56 0 V
55 0 V
55 0 V
55 0 V
55 0 V
55 0 V
56 0 V
55 0 V
55 0 V
55 0 V
55 0 V
55 0 V
56 0 V
55 0 V
55 0 V
55 0 V
55 0 V
55 0 V
55 0 V
56 0 V
55 0 V
55 0 V
55 0 V
55 0 V
55 0 V
56 0 V
55 0 V
55 0 V
55 0 V
55 0 V
55 0 V
56 0 V
55 0 V
55 0 V
55 0 V
55 0 V
55 0 V
56 0 V
55 0 V
55 0 V
55 0 V
55 0 V
55 0 V
56 0 V
55 0 V
55 0 V
55 0 V
55 0 V
55 0 V
56 0 V
55 0 V
55 0 V
55 0 V
55 0 V
55 0 V
55 0 V
56 0 V
55 0 V
55 0 V
55 0 V
55 0 V
55 0 V
56 0 V
55 0 V
55 0 V
55 0 V
55 0 V
55 0 V
56 0 V
55 0 V
55 0 V
55 0 V
55 0 V
55 0 V
56 0 V
55 0 V
55 0 V
55 0 V
55 0 V
55 0 V
56 0 V
55 0 V
55 0 V
55 0 V
stroke
LTw
% End plot #2
% Begin plot #3
1.300 UP
1.500 UL
LTb
LCb setrgbcolor
[] 0 setdash
1.00 0.08 0.58 C LCb setrgbcolor
1.300 UP
1.500 UL
LTb
1.00 0.08 0.58 C 5948 4646 M
591 0 V
-591 31 R
0 -62 V
591 62 R
0 -62 V
1342 3346 M
0 28 V
0 -28 R
31 0 V
-31 28 R
31 0 V
257 123 R
0 28 V
-31 -28 R
62 0 V
-62 28 R
62 0 V
256 -65 R
0 29 V
-31 -29 R
62 0 V
-62 29 R
62 0 V
257 -188 R
0 29 V
-31 -29 R
62 0 V
-62 29 R
62 0 V
256 -324 R
0 29 V
-31 -29 R
62 0 V
-62 29 R
62 0 V
256 -330 R
0 29 V
-31 -29 R
62 0 V
-62 29 R
62 0 V
257 -288 R
0 29 V
-31 -29 R
62 0 V
-62 29 R
62 0 V
256 -231 R
0 29 V
-31 -29 R
62 0 V
-62 29 R
62 0 V
257 -139 R
0 30 V
-31 -30 R
62 0 V
-62 30 R
62 0 V
256 -166 R
0 30 V
-31 -30 R
62 0 V
-62 30 R
62 0 V
256 -96 R
0 30 V
-31 -30 R
62 0 V
-62 30 R
62 0 V
257 -101 R
0 30 V
-31 -30 R
62 0 V
-62 30 R
62 0 V
256 -89 R
0 30 V
-31 -30 R
62 0 V
-62 30 R
62 0 V
257 -97 R
0 31 V
-31 -31 R
62 0 V
-62 31 R
62 0 V
256 -68 R
0 31 V
-31 -31 R
62 0 V
-62 31 R
62 0 V
256 -65 R
0 31 V
-31 -31 R
62 0 V
-62 31 R
62 0 V
257 -39 R
0 30 V
-31 -30 R
62 0 V
-62 30 R
62 0 V
256 -36 R
0 30 V
-31 -30 R
62 0 V
-62 30 R
62 0 V
257 -92 R
0 31 V
-31 -31 R
62 0 V
-62 31 R
62 0 V
256 -31 R
0 31 V
-31 -31 R
31 0 V
-31 31 R
31 0 V
1342 3360 CircleF
1630 3511 CircleF
1917 3475 CircleF
2205 3315 CircleF
2492 3020 CircleF
2779 2719 CircleF
3067 2460 CircleF
3354 2259 CircleF
3642 2149 CircleF
3929 2013 CircleF
4216 1947 CircleF
4504 1876 CircleF
4791 1817 CircleF
5079 1751 CircleF
5366 1714 CircleF
5653 1679 CircleF
5941 1671 CircleF
6228 1665 CircleF
6516 1604 CircleF
6803 1603 CircleF
6243 4646 CircleF
LTw
% End plot #3
% Begin plot #4
1.500 UL
LTb
LCb setrgbcolor
[] 0 setdash
1.00 0.08 0.58 C 1342 3360 M
288 151 V
287 -36 V
288 -160 V
287 -295 V
287 -301 V
288 -259 V
287 -201 V
288 -110 V
287 -136 V
287 -66 V
288 -71 V
287 -59 V
288 -66 V
287 -37 V
287 -35 V
288 -8 V
287 -6 V
288 -61 V
287 -1 V
stroke
LTw
% End plot #4
% Begin plot #5
1.300 UP
1.500 UL
LTb
LCb setrgbcolor
[] 0 setdash
0.00 0.15 0.68 C LCb setrgbcolor
1.300 UP
1.500 UL
LTb
0.00 0.15 0.68 C 5948 4426 M
591 0 V
-591 31 R
0 -62 V
591 62 R
0 -62 V
1342 3564 M
0 22 V
0 -22 R
31 0 V
-31 22 R
31 0 V
257 2 R
0 21 V
-31 -21 R
62 0 V
-62 21 R
62 0 V
256 -40 R
0 21 V
-31 -21 R
62 0 V
-62 21 R
62 0 V
257 -233 R
0 22 V
-31 -22 R
62 0 V
-62 22 R
62 0 V
256 -350 R
0 22 V
-31 -22 R
62 0 V
-62 22 R
62 0 V
256 -371 R
0 22 V
-31 -22 R
62 0 V
-62 22 R
62 0 V
257 -307 R
0 23 V
-31 -23 R
62 0 V
-62 23 R
62 0 V
256 -228 R
0 23 V
-31 -23 R
62 0 V
-62 23 R
62 0 V
257 -180 R
0 23 V
-31 -23 R
62 0 V
-62 23 R
62 0 V
256 -127 R
0 23 V
-31 -23 R
62 0 V
-62 23 R
62 0 V
256 -127 R
0 23 V
-31 -23 R
62 0 V
-62 23 R
62 0 V
257 -78 R
0 23 V
-31 -23 R
62 0 V
-62 23 R
62 0 V
256 -90 R
0 23 V
-31 -23 R
62 0 V
-62 23 R
62 0 V
257 -65 R
0 23 V
-31 -23 R
62 0 V
-62 23 R
62 0 V
256 -50 R
0 24 V
-31 -24 R
62 0 V
-62 24 R
62 0 V
256 -60 R
0 23 V
-31 -23 R
62 0 V
-62 23 R
62 0 V
257 -20 R
0 24 V
-31 -24 R
62 0 V
-62 24 R
62 0 V
256 -43 R
0 23 V
-31 -23 R
62 0 V
-62 23 R
62 0 V
257 -70 R
0 23 V
-31 -23 R
62 0 V
-62 23 R
62 0 V
256 -12 R
0 23 V
-31 -23 R
31 0 V
-31 23 R
31 0 V
1342 3575 CircleF
1630 3599 CircleF
1917 3580 CircleF
2205 3368 CircleF
2492 3040 CircleF
2779 2691 CircleF
3067 2407 CircleF
3354 2202 CircleF
3642 2044 CircleF
3929 1940 CircleF
4216 1836 CircleF
4504 1781 CircleF
4791 1715 CircleF
5079 1672 CircleF
5366 1646 CircleF
5653 1609 CircleF
5941 1613 CircleF
6228 1594 CircleF
6516 1546 CircleF
6803 1557 CircleF
6243 4426 CircleF
LTw
% End plot #5
% Begin plot #6
1.500 UL
LTb
LCb setrgbcolor
[] 0 setdash
0.00 0.15 0.68 C 1342 3575 M
288 24 V
287 -19 V
288 -212 V
287 -328 V
287 -349 V
288 -284 V
287 -205 V
288 -158 V
287 -104 V
287 -104 V
288 -55 V
287 -66 V
288 -43 V
287 -26 V
287 -37 V
288 4 V
287 -19 V
288 -48 V
287 11 V
stroke
LTw
% End plot #6
% Begin plot #7
1.300 UP
1.500 UL
LTb
LCb setrgbcolor
[] 0 setdash
0.00 0.38 0.68 C LCb setrgbcolor
1.300 UP
1.500 UL
LTb
0.00 0.38 0.68 C 5948 4206 M
591 0 V
-591 31 R
0 -62 V
591 62 R
0 -62 V
1342 3594 M
0 16 V
0 -16 R
31 0 V
-31 16 R
31 0 V
257 -20 R
0 17 V
-31 -17 R
62 0 V
-62 17 R
62 0 V
256 -47 R
0 16 V
-31 -16 R
62 0 V
-62 16 R
62 0 V
257 -190 R
0 16 V
-31 -16 R
62 0 V
-62 16 R
62 0 V
256 -361 R
0 17 V
-31 -17 R
62 0 V
-62 17 R
62 0 V
256 -404 R
0 17 V
-31 -17 R
62 0 V
-62 17 R
62 0 V
257 -322 R
0 17 V
-31 -17 R
62 0 V
-62 17 R
62 0 V
256 -224 R
0 18 V
-31 -18 R
62 0 V
-62 18 R
62 0 V
257 -178 R
0 18 V
-31 -18 R
62 0 V
-62 18 R
62 0 V
256 -139 R
0 18 V
-31 -18 R
62 0 V
-62 18 R
62 0 V
256 -109 R
0 18 V
-31 -18 R
62 0 V
-62 18 R
62 0 V
257 -86 R
0 18 V
-31 -18 R
62 0 V
-62 18 R
62 0 V
256 -73 R
0 18 V
-31 -18 R
62 0 V
-62 18 R
62 0 V
257 -48 R
0 18 V
-31 -18 R
62 0 V
-62 18 R
62 0 V
256 -62 R
0 17 V
-31 -17 R
62 0 V
-62 17 R
62 0 V
256 -48 R
0 17 V
-31 -17 R
62 0 V
-62 17 R
62 0 V
257 -22 R
0 18 V
-31 -18 R
62 0 V
-62 18 R
62 0 V
256 -55 R
0 18 V
-31 -18 R
62 0 V
-62 18 R
62 0 V
257 -17 R
0 18 V
-31 -18 R
62 0 V
-62 18 R
62 0 V
256 -47 R
0 18 V
-31 -18 R
31 0 V
-31 18 R
31 0 V
1342 3602 CircleF
1630 3599 CircleF
1917 3568 CircleF
2205 3394 CircleF
2492 3049 CircleF
2779 2662 CircleF
3067 2357 CircleF
3354 2151 CircleF
3642 1991 CircleF
3929 1870 CircleF
4216 1779 CircleF
4504 1711 CircleF
4791 1656 CircleF
5079 1626 CircleF
5366 1581 CircleF
5653 1551 CircleF
5941 1546 CircleF
6228 1509 CircleF
6516 1510 CircleF
6803 1481 CircleF
6243 4206 CircleF
LTw
% End plot #7
% Begin plot #8
1.500 UL
LTb
LCb setrgbcolor
[] 0 setdash
0.00 0.38 0.68 C 1342 3602 M
288 -3 V
287 -31 V
288 -174 V
287 -345 V
287 -387 V
288 -305 V
287 -206 V
288 -160 V
287 -121 V
287 -91 V
288 -68 V
287 -55 V
288 -30 V
287 -45 V
287 -30 V
288 -5 V
287 -37 V
288 1 V
287 -29 V
stroke
LTw
% End plot #8
% Begin plot #9
1.300 UP
1.500 UL
LTb
LCb setrgbcolor
[] 0 setdash
0.00 0.60 0.68 C LCb setrgbcolor
1.300 UP
1.500 UL
LTb
0.00 0.60 0.68 C 5948 3986 M
591 0 V
-591 31 R
0 -62 V
591 62 R
0 -62 V
1342 3593 M
0 13 V
0 -13 R
31 0 V
-31 13 R
31 0 V
257 15 R
0 12 V
-31 -12 R
62 0 V
-62 12 R
62 0 V
256 -52 R
0 13 V
-31 -13 R
62 0 V
-62 13 R
62 0 V
257 -176 R
0 13 V
-31 -13 R
62 0 V
-62 13 R
62 0 V
256 -351 R
0 14 V
-31 -14 R
62 0 V
-62 14 R
62 0 V
256 -397 R
0 13 V
-31 -13 R
62 0 V
-62 13 R
62 0 V
257 -343 R
0 13 V
-31 -13 R
62 0 V
-62 13 R
62 0 V
256 -266 R
0 13 V
-31 -13 R
62 0 V
-62 13 R
62 0 V
257 -179 R
0 14 V
-31 -14 R
62 0 V
-62 14 R
62 0 V
256 -141 R
0 14 V
-31 -14 R
62 0 V
-62 14 R
62 0 V
256 -101 R
0 14 V
-31 -14 R
62 0 V
-62 14 R
62 0 V
257 -107 R
0 15 V
-31 -15 R
62 0 V
-62 15 R
62 0 V
256 -54 R
0 14 V
-31 -14 R
62 0 V
-62 14 R
62 0 V
257 -55 R
0 14 V
-31 -14 R
62 0 V
-62 14 R
62 0 V
256 -27 R
0 14 V
-31 -14 R
62 0 V
-62 14 R
62 0 V
256 -56 R
0 14 V
-31 -14 R
62 0 V
-62 14 R
62 0 V
257 -26 R
0 14 V
-31 -14 R
62 0 V
-62 14 R
62 0 V
256 -37 R
0 14 V
-31 -14 R
62 0 V
-62 14 R
62 0 V
257 -21 R
0 14 V
-31 -14 R
62 0 V
-62 14 R
62 0 V
256 -24 R
0 14 V
-31 -14 R
31 0 V
-31 14 R
31 0 V
1342 3599 CircleF
1630 3627 CircleF
1917 3587 CircleF
2205 3425 CircleF
2492 3087 CircleF
2779 2703 CircleF
3067 2373 CircleF
3354 2120 CircleF
3642 1955 CircleF
3929 1828 CircleF
4216 1741 CircleF
4504 1649 CircleF
4791 1609 CircleF
5079 1568 CircleF
5366 1555 CircleF
5653 1513 CircleF
5941 1501 CircleF
6228 1478 CircleF
6516 1471 CircleF
6803 1461 CircleF
6243 3986 CircleF
LTw
% End plot #9
% Begin plot #10
1.500 UL
LTb
LCb setrgbcolor
[] 0 setdash
0.00 0.60 0.68 C 1342 3599 M
288 28 V
287 -40 V
288 -162 V
287 -338 V
287 -384 V
288 -330 V
287 -253 V
288 -165 V
287 -127 V
287 -87 V
288 -92 V
287 -40 V
288 -41 V
287 -13 V
287 -42 V
288 -12 V
287 -23 V
288 -7 V
287 -10 V
stroke
LTw
% End plot #10
% Begin plot #11
1.300 UP
1.500 UL
LTb
LCb setrgbcolor
[] 0 setdash
0.00 0.68 0.53 C LCb setrgbcolor
1.300 UP
1.500 UL
LTb
0.00 0.68 0.53 C 5948 3766 M
591 0 V
-591 31 R
0 -62 V
591 62 R
0 -62 V
1342 3643 M
0 10 V
0 -10 R
31 0 V
-31 10 R
31 0 V
257 -7 R
0 10 V
-31 -10 R
62 0 V
-62 10 R
62 0 V
256 -34 R
0 10 V
-31 -10 R
62 0 V
-62 10 R
62 0 V
257 -134 R
0 10 V
-31 -10 R
62 0 V
-62 10 R
62 0 V
256 -343 R
0 10 V
-31 -10 R
62 0 V
-62 10 R
62 0 V
256 -431 R
0 10 V
-31 -10 R
62 0 V
-62 10 R
62 0 V
257 -362 R
0 11 V
-31 -11 R
62 0 V
-62 11 R
62 0 V
256 -294 R
0 11 V
-31 -11 R
62 0 V
-62 11 R
62 0 V
257 -203 R
0 11 V
-31 -11 R
62 0 V
-62 11 R
62 0 V
256 -147 R
0 11 V
-31 -11 R
62 0 V
-62 11 R
62 0 V
256 -113 R
0 10 V
-31 -10 R
62 0 V
-62 10 R
62 0 V
257 -69 R
0 11 V
-31 -11 R
62 0 V
-62 11 R
62 0 V
256 -68 R
0 11 V
-31 -11 R
62 0 V
-62 11 R
62 0 V
257 -59 R
0 11 V
-31 -11 R
62 0 V
-62 11 R
62 0 V
256 -40 R
0 11 V
-31 -11 R
62 0 V
-62 11 R
62 0 V
256 -18 R
0 11 V
-31 -11 R
62 0 V
-62 11 R
62 0 V
257 -28 R
0 11 V
-31 -11 R
62 0 V
-62 11 R
62 0 V
256 -31 R
0 11 V
-31 -11 R
62 0 V
-62 11 R
62 0 V
257 -32 R
0 11 V
-31 -11 R
62 0 V
-62 11 R
62 0 V
256 -1 R
0 11 V
-31 -11 R
31 0 V
-31 11 R
31 0 V
1342 3648 CircleF
1630 3651 CircleF
1917 3627 CircleF
2205 3503 CircleF
2492 3170 CircleF
2779 2749 CircleF
3067 2397 CircleF
3354 2115 CircleF
3642 1923 CircleF
3929 1787 CircleF
4216 1684 CircleF
4504 1626 CircleF
4791 1569 CircleF
5079 1520 CircleF
5366 1491 CircleF
5653 1485 CircleF
5941 1467 CircleF
6228 1448 CircleF
6516 1427 CircleF
6803 1437 CircleF
6243 3766 CircleF
LTw
% End plot #11
% Begin plot #12
1.500 UL
LTb
LCb setrgbcolor
[] 0 setdash
0.00 0.68 0.53 C 1342 3648 M
288 3 V
287 -24 V
288 -124 V
287 -333 V
287 -421 V
288 -352 V
287 -282 V
288 -192 V
287 -136 V
287 -103 V
288 -58 V
287 -57 V
288 -49 V
287 -29 V
287 -6 V
288 -18 V
287 -19 V
288 -21 V
287 10 V
stroke
LTw
% End plot #12
% Begin plot #13
1.300 UP
1.500 UL
LTb
LCb setrgbcolor
[] 0 setdash
0.00 0.68 0.31 C LCb setrgbcolor
1.300 UP
1.500 UL
LTb
0.00 0.68 0.31 C 5948 3546 M
591 0 V
-591 31 R
0 -62 V
591 62 R
0 -62 V
1342 3652 M
0 8 V
0 -8 R
31 0 V
-31 8 R
31 0 V
257 1 R
0 8 V
-31 -8 R
62 0 V
-62 8 R
62 0 V
256 -25 R
0 8 V
-31 -8 R
62 0 V
-62 8 R
62 0 V
257 -102 R
0 8 V
-31 -8 R
62 0 V
-62 8 R
62 0 V
256 -304 R
0 8 V
-31 -8 R
62 0 V
-62 8 R
62 0 V
256 -437 R
0 8 V
-31 -8 R
62 0 V
-62 8 R
62 0 V
257 -439 R
0 8 V
-31 -8 R
62 0 V
-62 8 R
62 0 V
256 -311 R
0 8 V
-31 -8 R
62 0 V
-62 8 R
62 0 V
257 -217 R
0 9 V
-31 -9 R
62 0 V
-62 9 R
62 0 V
256 -153 R
0 8 V
-31 -8 R
62 0 V
-62 8 R
62 0 V
256 -100 R
0 9 V
-31 -9 R
62 0 V
-62 9 R
62 0 V
257 -80 R
0 9 V
-31 -9 R
62 0 V
-62 9 R
62 0 V
256 -59 R
0 8 V
-31 -8 R
62 0 V
-62 8 R
62 0 V
257 -44 R
0 8 V
-31 -8 R
62 0 V
-62 8 R
62 0 V
256 -35 R
0 8 V
-31 -8 R
62 0 V
-62 8 R
62 0 V
256 -21 R
0 9 V
-31 -9 R
62 0 V
-62 9 R
62 0 V
257 -41 R
0 9 V
-31 -9 R
62 0 V
-62 9 R
62 0 V
256 -8 R
0 8 V
-31 -8 R
62 0 V
-62 8 R
62 0 V
257 -28 R
0 9 V
-31 -9 R
62 0 V
-62 9 R
62 0 V
256 -10 R
0 8 V
-31 -8 R
31 0 V
-31 8 R
31 0 V
1342 3656 CircleF
1630 3665 CircleF
1917 3648 CircleF
2205 3554 CircleF
2492 3258 CircleF
2779 2829 CircleF
3067 2398 CircleF
3354 2095 CircleF
3642 1886 CircleF
3929 1742 CircleF
4216 1651 CircleF
4504 1579 CircleF
4791 1529 CircleF
5079 1493 CircleF
5366 1466 CircleF
5653 1453 CircleF
5941 1421 CircleF
6228 1422 CircleF
6516 1402 CircleF
6803 1401 CircleF
6243 3546 CircleF
LTw
% End plot #13
% Begin plot #14
1.500 UL
LTb
LCb setrgbcolor
[] 0 setdash
0.00 0.68 0.31 C 1342 3656 M
288 9 V
287 -17 V
288 -94 V
287 -296 V
287 -429 V
288 -431 V
287 -303 V
288 -209 V
287 -144 V
287 -91 V
288 -72 V
287 -50 V
288 -36 V
287 -27 V
287 -13 V
288 -32 V
287 1 V
288 -20 V
287 -1 V
stroke
LTw
% End plot #14
% Begin plot #15
1.300 UP
1.500 UL
LTb
LCb setrgbcolor
[] 0 setdash
0.00 0.68 0.08 C LCb setrgbcolor
1.300 UP
1.500 UL
LTb
0.00 0.68 0.08 C 5948 3326 M
591 0 V
-591 31 R
0 -62 V
591 62 R
0 -62 V
1342 3663 M
0 6 V
0 -6 R
31 0 V
-31 6 R
31 0 V
257 0 R
0 6 V
-31 -6 R
62 0 V
-62 6 R
62 0 V
256 -21 R
0 6 V
-31 -6 R
62 0 V
-62 6 R
62 0 V
257 -70 R
0 6 V
-31 -6 R
62 0 V
-62 6 R
62 0 V
256 -273 R
0 6 V
-31 -6 R
62 0 V
-62 6 R
62 0 V
256 -456 R
0 6 V
-31 -6 R
62 0 V
-62 6 R
62 0 V
257 -425 R
0 6 V
-31 -6 R
62 0 V
-62 6 R
62 0 V
256 -356 R
0 6 V
-31 -6 R
62 0 V
-62 6 R
62 0 V
257 -233 R
0 6 V
-31 -6 R
62 0 V
-62 6 R
62 0 V
256 -161 R
0 6 V
-31 -6 R
62 0 V
-62 6 R
62 0 V
256 -113 R
0 7 V
-31 -7 R
62 0 V
-62 7 R
62 0 V
257 -63 R
0 7 V
-31 -7 R
62 0 V
-62 7 R
62 0 V
256 -63 R
0 7 V
-31 -7 R
62 0 V
-62 7 R
62 0 V
257 -44 R
0 6 V
-31 -6 R
62 0 V
-62 6 R
62 0 V
256 -37 R
0 6 V
-31 -6 R
62 0 V
-62 6 R
62 0 V
256 -14 R
0 7 V
-31 -7 R
62 0 V
-62 7 R
62 0 V
257 -26 R
0 7 V
-31 -7 R
62 0 V
-62 7 R
62 0 V
256 -22 R
0 7 V
-31 -7 R
62 0 V
-62 7 R
62 0 V
257 -13 R
0 7 V
-31 -7 R
62 0 V
-62 7 R
62 0 V
256 -22 R
0 6 V
-31 -6 R
31 0 V
-31 6 R
31 0 V
1342 3666 CircleF
1630 3672 CircleF
1917 3657 CircleF
2205 3593 CircleF
2492 3326 CircleF
2779 2876 CircleF
3067 2457 CircleF
3354 2107 CircleF
3642 1880 CircleF
3929 1725 CircleF
4216 1618 CircleF
4504 1563 CircleF
4791 1507 CircleF
5079 1469 CircleF
5366 1438 CircleF
5653 1431 CircleF
5941 1411 CircleF
6228 1396 CircleF
6516 1391 CircleF
6803 1375 CircleF
6243 3326 CircleF
LTw
% End plot #15
% Begin plot #16
1.500 UL
LTb
LCb setrgbcolor
[] 0 setdash
0.00 0.68 0.08 C 1342 3666 M
288 6 V
287 -15 V
288 -64 V
287 -267 V
287 -450 V
288 -419 V
287 -350 V
288 -227 V
287 -155 V
287 -107 V
288 -55 V
287 -56 V
288 -38 V
287 -31 V
287 -7 V
288 -20 V
287 -15 V
288 -5 V
287 -16 V
stroke
LTw
% End plot #16
% Begin plot #17
1.300 UP
1.500 UL
LTb
LCb setrgbcolor
[] 0 setdash
0.55 0.00 0.00 C LCb setrgbcolor
1.300 UP
1.500 UL
LTb
0.55 0.00 0.00 C 5948 3106 M
591 0 V
-591 31 R
0 -62 V
591 62 R
0 -62 V
1342 3668 M
0 5 V
0 -5 R
31 0 V
-31 5 R
31 0 V
257 -4 R
0 5 V
-31 -5 R
62 0 V
-62 5 R
62 0 V
256 -4 R
0 5 V
-31 -5 R
62 0 V
-62 5 R
62 0 V
257 -51 R
0 5 V
-31 -5 R
62 0 V
-62 5 R
62 0 V
256 -221 R
0 5 V
-31 -5 R
62 0 V
-62 5 R
62 0 V
256 -438 R
0 5 V
-31 -5 R
62 0 V
-62 5 R
62 0 V
257 -499 R
0 5 V
-31 -5 R
62 0 V
-62 5 R
62 0 V
256 -370 R
0 5 V
-31 -5 R
62 0 V
-62 5 R
62 0 V
257 -243 R
0 5 V
-31 -5 R
62 0 V
-62 5 R
62 0 V
256 -177 R
0 5 V
-31 -5 R
62 0 V
-62 5 R
62 0 V
256 -109 R
0 5 V
-31 -5 R
62 0 V
-62 5 R
62 0 V
257 -84 R
0 6 V
-31 -6 R
62 0 V
-62 6 R
62 0 V
256 -50 R
0 5 V
-31 -5 R
62 0 V
-62 5 R
62 0 V
257 -37 R
0 6 V
-31 -6 R
62 0 V
-62 6 R
62 0 V
256 -31 R
0 5 V
-31 -5 R
62 0 V
-62 5 R
62 0 V
256 -20 R
0 5 V
-31 -5 R
62 0 V
-62 5 R
62 0 V
257 -25 R
0 5 V
-31 -5 R
62 0 V
-62 5 R
62 0 V
256 -12 R
0 5 V
-31 -5 R
62 0 V
-62 5 R
62 0 V
257 -19 R
0 5 V
-31 -5 R
62 0 V
-62 5 R
62 0 V
256 -13 R
0 6 V
-31 -6 R
31 0 V
-31 6 R
31 0 V
1342 3671 CircleF
1630 3671 CircleF
1917 3672 CircleF
2205 3627 CircleF
2492 3411 CircleF
2779 2978 CircleF
3067 2484 CircleF
3354 2118 CircleF
3642 1880 CircleF
3929 1708 CircleF
4216 1604 CircleF
4504 1526 CircleF
4791 1482 CircleF
5079 1450 CircleF
5366 1424 CircleF
5653 1409 CircleF
5941 1390 CircleF
6228 1382 CircleF
6516 1369 CircleF
6803 1361 CircleF
6243 3106 CircleF
LTw
% End plot #17
% Begin plot #18
1.500 UL
LTb
LCb setrgbcolor
[] 0 setdash
0.55 0.00 0.00 C 1342 3671 M
288 0 V
287 1 V
288 -45 V
287 -216 V
287 -433 V
288 -494 V
287 -366 V
288 -238 V
287 -172 V
287 -104 V
288 -78 V
287 -44 V
288 -32 V
287 -26 V
287 -15 V
288 -19 V
287 -8 V
288 -13 V
287 -8 V
stroke
LTw
% End plot #18
% Begin plot #19
1.300 UP
1.500 UL
LTb
LCb setrgbcolor
[] 0 setdash
0.00 0.39 0.00 C LCb setrgbcolor
1.300 UP
1.500 UL
LTb
0.00 0.39 0.00 C 5948 2886 M
591 0 V
-591 31 R
0 -62 V
591 62 R
0 -62 V
1342 3674 M
0 4 V
0 -4 R
31 0 V
-31 4 R
31 0 V
257 -5 R
0 3 V
-31 -3 R
62 0 V
-62 3 R
62 0 V
256 -7 R
0 3 V
-31 -3 R
62 0 V
-62 3 R
62 0 V
257 -28 R
0 4 V
-31 -4 R
62 0 V
-62 4 R
62 0 V
256 -166 R
0 4 V
-31 -4 R
62 0 V
-62 4 R
62 0 V
256 -418 R
0 4 V
-31 -4 R
62 0 V
-62 4 R
62 0 V
257 -494 R
0 4 V
-31 -4 R
62 0 V
-62 4 R
62 0 V
256 -421 R
0 4 V
-31 -4 R
62 0 V
-62 4 R
62 0 V
257 -295 R
0 4 V
-31 -4 R
62 0 V
-62 4 R
62 0 V
256 -180 R
0 4 V
-31 -4 R
62 0 V
-62 4 R
62 0 V
256 -114 R
0 4 V
-31 -4 R
62 0 V
-62 4 R
62 0 V
257 -77 R
0 4 V
-31 -4 R
62 0 V
-62 4 R
62 0 V
256 -53 R
0 4 V
-31 -4 R
62 0 V
-62 4 R
62 0 V
257 -31 R
0 4 V
-31 -4 R
62 0 V
-62 4 R
62 0 V
256 -29 R
0 4 V
-31 -4 R
62 0 V
-62 4 R
62 0 V
256 -26 R
0 4 V
-31 -4 R
62 0 V
-62 4 R
62 0 V
257 -15 R
0 4 V
-31 -4 R
62 0 V
-62 4 R
62 0 V
256 -19 R
0 4 V
-31 -4 R
62 0 V
-62 4 R
62 0 V
257 -8 R
0 4 V
-31 -4 R
62 0 V
-62 4 R
62 0 V
256 -11 R
0 4 V
-31 -4 R
31 0 V
-31 4 R
31 0 V
1342 3676 CircleF
1630 3674 CircleF
1917 3671 CircleF
2205 3646 CircleF
2492 3484 CircleF
2779 3070 CircleF
3067 2580 CircleF
3354 2163 CircleF
3642 1872 CircleF
3929 1696 CircleF
4216 1586 CircleF
4504 1513 CircleF
4791 1464 CircleF
5079 1437 CircleF
5366 1412 CircleF
5653 1390 CircleF
5941 1379 CircleF
6228 1364 CircleF
6516 1360 CircleF
6803 1353 CircleF
6243 2886 CircleF
LTw
% End plot #19
% Begin plot #20
1.500 UL
LTb
LCb setrgbcolor
[] 0 setdash
0.00 0.39 0.00 C 1342 3676 M
288 -2 V
287 -3 V
288 -25 V
287 -162 V
287 -414 V
288 -490 V
287 -417 V
288 -291 V
287 -176 V
287 -110 V
288 -73 V
287 -49 V
288 -27 V
287 -25 V
287 -22 V
288 -11 V
287 -15 V
288 -4 V
287 -7 V
stroke
LTw
% End plot #20
2.000 UL
LTb
LCb setrgbcolor
[] 0 setdash
1.000 UL
LTb
1342 4819 N
0 -4115 V
5461 0 V
0 4115 V
-5461 0 V
Z stroke
1.000 UP
1.000 UL
LTb
stroke
grestore
end
showpage
%%Trailer
