%!PS-Adobe-2.0 EPSF-2.0
%%Title: THOTimeScaling.tex
%%Creator: gnuplot 5.2 patchlevel 2
%%CreationDate: Tue Aug 11 12:58:24 2020
%%DocumentFonts: 
%%BoundingBox: 50 50 500 257
%%EndComments
%%BeginProlog
/gnudict 256 dict def
gnudict begin
%
% The following true/false flags may be edited by hand if desired.
% The unit line width and grayscale image gamma correction may also be changed.
%
/Color true def
/Blacktext false def
/Solid false def
/Dashlength 1 def
/Landscape false def
/Level1 false def
/Level3 false def
/Rounded false def
/ClipToBoundingBox false def
/SuppressPDFMark false def
/TransparentPatterns false def
/gnulinewidth 5.000 def
/userlinewidth gnulinewidth def
/Gamma 1.0 def
/BackgroundColor {-1.000 -1.000 -1.000} def
%
/vshift -73 def
/dl1 {
  10.0 Dashlength userlinewidth gnulinewidth div mul mul mul
  Rounded { currentlinewidth 0.75 mul sub dup 0 le { pop 0.01 } if } if
} def
/dl2 {
  10.0 Dashlength userlinewidth gnulinewidth div mul mul mul
  Rounded { currentlinewidth 0.75 mul add } if
} def
/hpt_ 31.5 def
/vpt_ 31.5 def
/hpt hpt_ def
/vpt vpt_ def
/doclip {
  ClipToBoundingBox {
    newpath 50 50 moveto 500 50 lineto 500 257 lineto 50 257 lineto closepath
    clip
  } if
} def
%
% Gnuplot Prolog Version 5.1 (Oct 2015)
%
%/SuppressPDFMark true def
%
/M {moveto} bind def
/L {lineto} bind def
/R {rmoveto} bind def
/V {rlineto} bind def
/N {newpath moveto} bind def
/Z {closepath} bind def
/C {setrgbcolor} bind def
/f {rlineto fill} bind def
/g {setgray} bind def
/Gshow {show} def   % May be redefined later in the file to support UTF-8
/vpt2 vpt 2 mul def
/hpt2 hpt 2 mul def
/Lshow {currentpoint stroke M 0 vshift R 
	Blacktext {gsave 0 setgray textshow grestore} {textshow} ifelse} def
/Rshow {currentpoint stroke M dup stringwidth pop neg vshift R
	Blacktext {gsave 0 setgray textshow grestore} {textshow} ifelse} def
/Cshow {currentpoint stroke M dup stringwidth pop -2 div vshift R 
	Blacktext {gsave 0 setgray textshow grestore} {textshow} ifelse} def
/UP {dup vpt_ mul /vpt exch def hpt_ mul /hpt exch def
  /hpt2 hpt 2 mul def /vpt2 vpt 2 mul def} def
/DL {Color {setrgbcolor Solid {pop []} if 0 setdash}
 {pop pop pop 0 setgray Solid {pop []} if 0 setdash} ifelse} def
/BL {stroke userlinewidth 2 mul setlinewidth
	Rounded {1 setlinejoin 1 setlinecap} if} def
/AL {stroke userlinewidth 2 div setlinewidth
	Rounded {1 setlinejoin 1 setlinecap} if} def
/UL {dup gnulinewidth mul /userlinewidth exch def
	dup 1 lt {pop 1} if 10 mul /udl exch def} def
/PL {stroke userlinewidth setlinewidth
	Rounded {1 setlinejoin 1 setlinecap} if} def
3.8 setmiterlimit
% Classic Line colors (version 5.0)
/LCw {1 1 1} def
/LCb {0 0 0} def
/LCa {0 0 0} def
/LC0 {1 0 0} def
/LC1 {0 1 0} def
/LC2 {0 0 1} def
/LC3 {1 0 1} def
/LC4 {0 1 1} def
/LC5 {1 1 0} def
/LC6 {0 0 0} def
/LC7 {1 0.3 0} def
/LC8 {0.5 0.5 0.5} def
% Default dash patterns (version 5.0)
/LTB {BL [] LCb DL} def
/LTw {PL [] 1 setgray} def
/LTb {PL [] LCb DL} def
/LTa {AL [1 udl mul 2 udl mul] 0 setdash LCa setrgbcolor} def
/LT0 {PL [] LC0 DL} def
/LT1 {PL [2 dl1 3 dl2] LC1 DL} def
/LT2 {PL [1 dl1 1.5 dl2] LC2 DL} def
/LT3 {PL [6 dl1 2 dl2 1 dl1 2 dl2] LC3 DL} def
/LT4 {PL [1 dl1 2 dl2 6 dl1 2 dl2 1 dl1 2 dl2] LC4 DL} def
/LT5 {PL [4 dl1 2 dl2] LC5 DL} def
/LT6 {PL [1.5 dl1 1.5 dl2 1.5 dl1 1.5 dl2 1.5 dl1 6 dl2] LC6 DL} def
/LT7 {PL [3 dl1 3 dl2 1 dl1 3 dl2] LC7 DL} def
/LT8 {PL [2 dl1 2 dl2 2 dl1 6 dl2] LC8 DL} def
/SL {[] 0 setdash} def
/Pnt {stroke [] 0 setdash gsave 1 setlinecap M 0 0 V stroke grestore} def
/Dia {stroke [] 0 setdash 2 copy vpt add M
  hpt neg vpt neg V hpt vpt neg V
  hpt vpt V hpt neg vpt V closepath stroke
  Pnt} def
/Pls {stroke [] 0 setdash vpt sub M 0 vpt2 V
  currentpoint stroke M
  hpt neg vpt neg R hpt2 0 V stroke
 } def
/Box {stroke [] 0 setdash 2 copy exch hpt sub exch vpt add M
  0 vpt2 neg V hpt2 0 V 0 vpt2 V
  hpt2 neg 0 V closepath stroke
  Pnt} def
/Crs {stroke [] 0 setdash exch hpt sub exch vpt add M
  hpt2 vpt2 neg V currentpoint stroke M
  hpt2 neg 0 R hpt2 vpt2 V stroke} def
/TriU {stroke [] 0 setdash 2 copy vpt 1.12 mul add M
  hpt neg vpt -1.62 mul V
  hpt 2 mul 0 V
  hpt neg vpt 1.62 mul V closepath stroke
  Pnt} def
/Star {2 copy Pls Crs} def
/BoxF {stroke [] 0 setdash exch hpt sub exch vpt add M
  0 vpt2 neg V hpt2 0 V 0 vpt2 V
  hpt2 neg 0 V closepath fill} def
/TriUF {stroke [] 0 setdash vpt 1.12 mul add M
  hpt neg vpt -1.62 mul V
  hpt 2 mul 0 V
  hpt neg vpt 1.62 mul V closepath fill} def
/TriD {stroke [] 0 setdash 2 copy vpt 1.12 mul sub M
  hpt neg vpt 1.62 mul V
  hpt 2 mul 0 V
  hpt neg vpt -1.62 mul V closepath stroke
  Pnt} def
/TriDF {stroke [] 0 setdash vpt 1.12 mul sub M
  hpt neg vpt 1.62 mul V
  hpt 2 mul 0 V
  hpt neg vpt -1.62 mul V closepath fill} def
/DiaF {stroke [] 0 setdash vpt add M
  hpt neg vpt neg V hpt vpt neg V
  hpt vpt V hpt neg vpt V closepath fill} def
/Pent {stroke [] 0 setdash 2 copy gsave
  translate 0 hpt M 4 {72 rotate 0 hpt L} repeat
  closepath stroke grestore Pnt} def
/PentF {stroke [] 0 setdash gsave
  translate 0 hpt M 4 {72 rotate 0 hpt L} repeat
  closepath fill grestore} def
/Circle {stroke [] 0 setdash 2 copy
  hpt 0 360 arc stroke Pnt} def
/CircleF {stroke [] 0 setdash hpt 0 360 arc fill} def
/C0 {BL [] 0 setdash 2 copy moveto vpt 90 450 arc} bind def
/C1 {BL [] 0 setdash 2 copy moveto
	2 copy vpt 0 90 arc closepath fill
	vpt 0 360 arc closepath} bind def
/C2 {BL [] 0 setdash 2 copy moveto
	2 copy vpt 90 180 arc closepath fill
	vpt 0 360 arc closepath} bind def
/C3 {BL [] 0 setdash 2 copy moveto
	2 copy vpt 0 180 arc closepath fill
	vpt 0 360 arc closepath} bind def
/C4 {BL [] 0 setdash 2 copy moveto
	2 copy vpt 180 270 arc closepath fill
	vpt 0 360 arc closepath} bind def
/C5 {BL [] 0 setdash 2 copy moveto
	2 copy vpt 0 90 arc
	2 copy moveto
	2 copy vpt 180 270 arc closepath fill
	vpt 0 360 arc} bind def
/C6 {BL [] 0 setdash 2 copy moveto
	2 copy vpt 90 270 arc closepath fill
	vpt 0 360 arc closepath} bind def
/C7 {BL [] 0 setdash 2 copy moveto
	2 copy vpt 0 270 arc closepath fill
	vpt 0 360 arc closepath} bind def
/C8 {BL [] 0 setdash 2 copy moveto
	2 copy vpt 270 360 arc closepath fill
	vpt 0 360 arc closepath} bind def
/C9 {BL [] 0 setdash 2 copy moveto
	2 copy vpt 270 450 arc closepath fill
	vpt 0 360 arc closepath} bind def
/C10 {BL [] 0 setdash 2 copy 2 copy moveto vpt 270 360 arc closepath fill
	2 copy moveto
	2 copy vpt 90 180 arc closepath fill
	vpt 0 360 arc closepath} bind def
/C11 {BL [] 0 setdash 2 copy moveto
	2 copy vpt 0 180 arc closepath fill
	2 copy moveto
	2 copy vpt 270 360 arc closepath fill
	vpt 0 360 arc closepath} bind def
/C12 {BL [] 0 setdash 2 copy moveto
	2 copy vpt 180 360 arc closepath fill
	vpt 0 360 arc closepath} bind def
/C13 {BL [] 0 setdash 2 copy moveto
	2 copy vpt 0 90 arc closepath fill
	2 copy moveto
	2 copy vpt 180 360 arc closepath fill
	vpt 0 360 arc closepath} bind def
/C14 {BL [] 0 setdash 2 copy moveto
	2 copy vpt 90 360 arc closepath fill
	vpt 0 360 arc} bind def
/C15 {BL [] 0 setdash 2 copy vpt 0 360 arc closepath fill
	vpt 0 360 arc closepath} bind def
/Rec {newpath 4 2 roll moveto 1 index 0 rlineto 0 exch rlineto
	neg 0 rlineto closepath} bind def
/Square {dup Rec} bind def
/Bsquare {vpt sub exch vpt sub exch vpt2 Square} bind def
/S0 {BL [] 0 setdash 2 copy moveto 0 vpt rlineto BL Bsquare} bind def
/S1 {BL [] 0 setdash 2 copy vpt Square fill Bsquare} bind def
/S2 {BL [] 0 setdash 2 copy exch vpt sub exch vpt Square fill Bsquare} bind def
/S3 {BL [] 0 setdash 2 copy exch vpt sub exch vpt2 vpt Rec fill Bsquare} bind def
/S4 {BL [] 0 setdash 2 copy exch vpt sub exch vpt sub vpt Square fill Bsquare} bind def
/S5 {BL [] 0 setdash 2 copy 2 copy vpt Square fill
	exch vpt sub exch vpt sub vpt Square fill Bsquare} bind def
/S6 {BL [] 0 setdash 2 copy exch vpt sub exch vpt sub vpt vpt2 Rec fill Bsquare} bind def
/S7 {BL [] 0 setdash 2 copy exch vpt sub exch vpt sub vpt vpt2 Rec fill
	2 copy vpt Square fill Bsquare} bind def
/S8 {BL [] 0 setdash 2 copy vpt sub vpt Square fill Bsquare} bind def
/S9 {BL [] 0 setdash 2 copy vpt sub vpt vpt2 Rec fill Bsquare} bind def
/S10 {BL [] 0 setdash 2 copy vpt sub vpt Square fill 2 copy exch vpt sub exch vpt Square fill
	Bsquare} bind def
/S11 {BL [] 0 setdash 2 copy vpt sub vpt Square fill 2 copy exch vpt sub exch vpt2 vpt Rec fill
	Bsquare} bind def
/S12 {BL [] 0 setdash 2 copy exch vpt sub exch vpt sub vpt2 vpt Rec fill Bsquare} bind def
/S13 {BL [] 0 setdash 2 copy exch vpt sub exch vpt sub vpt2 vpt Rec fill
	2 copy vpt Square fill Bsquare} bind def
/S14 {BL [] 0 setdash 2 copy exch vpt sub exch vpt sub vpt2 vpt Rec fill
	2 copy exch vpt sub exch vpt Square fill Bsquare} bind def
/S15 {BL [] 0 setdash 2 copy Bsquare fill Bsquare} bind def
/D0 {gsave translate 45 rotate 0 0 S0 stroke grestore} bind def
/D1 {gsave translate 45 rotate 0 0 S1 stroke grestore} bind def
/D2 {gsave translate 45 rotate 0 0 S2 stroke grestore} bind def
/D3 {gsave translate 45 rotate 0 0 S3 stroke grestore} bind def
/D4 {gsave translate 45 rotate 0 0 S4 stroke grestore} bind def
/D5 {gsave translate 45 rotate 0 0 S5 stroke grestore} bind def
/D6 {gsave translate 45 rotate 0 0 S6 stroke grestore} bind def
/D7 {gsave translate 45 rotate 0 0 S7 stroke grestore} bind def
/D8 {gsave translate 45 rotate 0 0 S8 stroke grestore} bind def
/D9 {gsave translate 45 rotate 0 0 S9 stroke grestore} bind def
/D10 {gsave translate 45 rotate 0 0 S10 stroke grestore} bind def
/D11 {gsave translate 45 rotate 0 0 S11 stroke grestore} bind def
/D12 {gsave translate 45 rotate 0 0 S12 stroke grestore} bind def
/D13 {gsave translate 45 rotate 0 0 S13 stroke grestore} bind def
/D14 {gsave translate 45 rotate 0 0 S14 stroke grestore} bind def
/D15 {gsave translate 45 rotate 0 0 S15 stroke grestore} bind def
/DiaE {stroke [] 0 setdash vpt add M
  hpt neg vpt neg V hpt vpt neg V
  hpt vpt V hpt neg vpt V closepath stroke} def
/BoxE {stroke [] 0 setdash exch hpt sub exch vpt add M
  0 vpt2 neg V hpt2 0 V 0 vpt2 V
  hpt2 neg 0 V closepath stroke} def
/TriUE {stroke [] 0 setdash vpt 1.12 mul add M
  hpt neg vpt -1.62 mul V
  hpt 2 mul 0 V
  hpt neg vpt 1.62 mul V closepath stroke} def
/TriDE {stroke [] 0 setdash vpt 1.12 mul sub M
  hpt neg vpt 1.62 mul V
  hpt 2 mul 0 V
  hpt neg vpt -1.62 mul V closepath stroke} def
/PentE {stroke [] 0 setdash gsave
  translate 0 hpt M 4 {72 rotate 0 hpt L} repeat
  closepath stroke grestore} def
/CircE {stroke [] 0 setdash 
  hpt 0 360 arc stroke} def
/Opaque {gsave closepath 1 setgray fill grestore 0 setgray closepath} def
/DiaW {stroke [] 0 setdash vpt add M
  hpt neg vpt neg V hpt vpt neg V
  hpt vpt V hpt neg vpt V Opaque stroke} def
/BoxW {stroke [] 0 setdash exch hpt sub exch vpt add M
  0 vpt2 neg V hpt2 0 V 0 vpt2 V
  hpt2 neg 0 V Opaque stroke} def
/TriUW {stroke [] 0 setdash vpt 1.12 mul add M
  hpt neg vpt -1.62 mul V
  hpt 2 mul 0 V
  hpt neg vpt 1.62 mul V Opaque stroke} def
/TriDW {stroke [] 0 setdash vpt 1.12 mul sub M
  hpt neg vpt 1.62 mul V
  hpt 2 mul 0 V
  hpt neg vpt -1.62 mul V Opaque stroke} def
/PentW {stroke [] 0 setdash gsave
  translate 0 hpt M 4 {72 rotate 0 hpt L} repeat
  Opaque stroke grestore} def
/CircW {stroke [] 0 setdash 
  hpt 0 360 arc Opaque stroke} def
/BoxFill {gsave Rec 1 setgray fill grestore} def
/Density {
  /Fillden exch def
  currentrgbcolor
  /ColB exch def /ColG exch def /ColR exch def
  /ColR ColR Fillden mul Fillden sub 1 add def
  /ColG ColG Fillden mul Fillden sub 1 add def
  /ColB ColB Fillden mul Fillden sub 1 add def
  ColR ColG ColB setrgbcolor} def
/BoxColFill {gsave Rec PolyFill} def
/PolyFill {gsave Density fill grestore grestore} def
/h {rlineto rlineto rlineto gsave closepath fill grestore} bind def
%
% PostScript Level 1 Pattern Fill routine for rectangles
% Usage: x y w h s a XX PatternFill
%	x,y = lower left corner of box to be filled
%	w,h = width and height of box
%	  a = angle in degrees between lines and x-axis
%	 XX = 0/1 for no/yes cross-hatch
%
/PatternFill {gsave /PFa [ 9 2 roll ] def
  PFa 0 get PFa 2 get 2 div add PFa 1 get PFa 3 get 2 div add translate
  PFa 2 get -2 div PFa 3 get -2 div PFa 2 get PFa 3 get Rec
  TransparentPatterns {} {gsave 1 setgray fill grestore} ifelse
  clip
  currentlinewidth 0.5 mul setlinewidth
  /PFs PFa 2 get dup mul PFa 3 get dup mul add sqrt def
  0 0 M PFa 5 get rotate PFs -2 div dup translate
  0 1 PFs PFa 4 get div 1 add floor cvi
	{PFa 4 get mul 0 M 0 PFs V} for
  0 PFa 6 get ne {
	0 1 PFs PFa 4 get div 1 add floor cvi
	{PFa 4 get mul 0 2 1 roll M PFs 0 V} for
 } if
  stroke grestore} def
%
/languagelevel where
 {pop languagelevel} {1} ifelse
dup 2 lt
	{/InterpretLevel1 true def
	 /InterpretLevel3 false def}
	{/InterpretLevel1 Level1 def
	 2 gt
	    {/InterpretLevel3 Level3 def}
	    {/InterpretLevel3 false def}
	 ifelse }
 ifelse
%
% PostScript level 2 pattern fill definitions
%
/Level2PatternFill {
/Tile8x8 {/PaintType 2 /PatternType 1 /TilingType 1 /BBox [0 0 8 8] /XStep 8 /YStep 8}
	bind def
/KeepColor {currentrgbcolor [/Pattern /DeviceRGB] setcolorspace} bind def
<< Tile8x8
 /PaintProc {0.5 setlinewidth pop 0 0 M 8 8 L 0 8 M 8 0 L stroke} 
>> matrix makepattern
/Pat1 exch def
<< Tile8x8
 /PaintProc {0.5 setlinewidth pop 0 0 M 8 8 L 0 8 M 8 0 L stroke
	0 4 M 4 8 L 8 4 L 4 0 L 0 4 L stroke}
>> matrix makepattern
/Pat2 exch def
<< Tile8x8
 /PaintProc {0.5 setlinewidth pop 0 0 M 0 8 L
	8 8 L 8 0 L 0 0 L fill}
>> matrix makepattern
/Pat3 exch def
<< Tile8x8
 /PaintProc {0.5 setlinewidth pop -4 8 M 8 -4 L
	0 12 M 12 0 L stroke}
>> matrix makepattern
/Pat4 exch def
<< Tile8x8
 /PaintProc {0.5 setlinewidth pop -4 0 M 8 12 L
	0 -4 M 12 8 L stroke}
>> matrix makepattern
/Pat5 exch def
<< Tile8x8
 /PaintProc {0.5 setlinewidth pop -2 8 M 4 -4 L
	0 12 M 8 -4 L 4 12 M 10 0 L stroke}
>> matrix makepattern
/Pat6 exch def
<< Tile8x8
 /PaintProc {0.5 setlinewidth pop -2 0 M 4 12 L
	0 -4 M 8 12 L 4 -4 M 10 8 L stroke}
>> matrix makepattern
/Pat7 exch def
<< Tile8x8
 /PaintProc {0.5 setlinewidth pop 8 -2 M -4 4 L
	12 0 M -4 8 L 12 4 M 0 10 L stroke}
>> matrix makepattern
/Pat8 exch def
<< Tile8x8
 /PaintProc {0.5 setlinewidth pop 0 -2 M 12 4 L
	-4 0 M 12 8 L -4 4 M 8 10 L stroke}
>> matrix makepattern
/Pat9 exch def
/Pattern1 {PatternBgnd KeepColor Pat1 setpattern} bind def
/Pattern2 {PatternBgnd KeepColor Pat2 setpattern} bind def
/Pattern3 {PatternBgnd KeepColor Pat3 setpattern} bind def
/Pattern4 {PatternBgnd KeepColor Landscape {Pat5} {Pat4} ifelse setpattern} bind def
/Pattern5 {PatternBgnd KeepColor Landscape {Pat4} {Pat5} ifelse setpattern} bind def
/Pattern6 {PatternBgnd KeepColor Landscape {Pat9} {Pat6} ifelse setpattern} bind def
/Pattern7 {PatternBgnd KeepColor Landscape {Pat8} {Pat7} ifelse setpattern} bind def
} def
%
%
%End of PostScript Level 2 code
%
/PatternBgnd {
  TransparentPatterns {} {gsave 1 setgray fill grestore} ifelse
} def
%
% Substitute for Level 2 pattern fill codes with
% grayscale if Level 2 support is not selected.
%
/Level1PatternFill {
/Pattern1 {0.250 Density} bind def
/Pattern2 {0.500 Density} bind def
/Pattern3 {0.750 Density} bind def
/Pattern4 {0.125 Density} bind def
/Pattern5 {0.375 Density} bind def
/Pattern6 {0.625 Density} bind def
/Pattern7 {0.875 Density} bind def
} def
%
% Now test for support of Level 2 code
%
Level1 {Level1PatternFill} {Level2PatternFill} ifelse
%
/Symbol-Oblique /Symbol findfont [1 0 .167 1 0 0] makefont
dup length dict begin {1 index /FID eq {pop pop} {def} ifelse} forall
currentdict end definefont pop
%
Level1 SuppressPDFMark or 
{} {
/SDict 10 dict def
systemdict /pdfmark known not {
  userdict /pdfmark systemdict /cleartomark get put
} if
SDict begin [
  /Title (THOTimeScaling.tex)
  /Subject (gnuplot plot)
  /Creator (gnuplot 5.2 patchlevel 2)
%  /Producer (gnuplot)
%  /Keywords ()
  /CreationDate (Tue Aug 11 12:58:24 2020)
  /DOCINFO pdfmark
end
} ifelse
%
% Support for boxed text - Ethan A Merritt Sep 2016
%
/InitTextBox { userdict /TBy2 3 -1 roll put userdict /TBx2 3 -1 roll put
           userdict /TBy1 3 -1 roll put userdict /TBx1 3 -1 roll put
	   /Boxing true def } def
/ExtendTextBox { dup type /stringtype eq
    { Boxing { gsave dup false charpath pathbbox
      dup TBy2 gt {userdict /TBy2 3 -1 roll put} {pop} ifelse
      dup TBx2 gt {userdict /TBx2 3 -1 roll put} {pop} ifelse
      dup TBy1 lt {userdict /TBy1 3 -1 roll put} {pop} ifelse
      dup TBx1 lt {userdict /TBx1 3 -1 roll put} {pop} ifelse
      grestore } if }
    {} ifelse} def
/PopTextBox { newpath TBx1 TBxmargin sub TBy1 TBymargin sub M
               TBx1 TBxmargin sub TBy2 TBymargin add L
	       TBx2 TBxmargin add TBy2 TBymargin add L
	       TBx2 TBxmargin add TBy1 TBymargin sub L closepath } def
/DrawTextBox { PopTextBox stroke /Boxing false def} def
/FillTextBox { gsave PopTextBox fill grestore /Boxing false def} def
0 0 0 0 InitTextBox
/TBxmargin 20 def
/TBymargin 20 def
/Boxing false def
/textshow { ExtendTextBox Gshow } def
%
end
%%EndProlog
%%Page: 1 1
gnudict begin
gsave
doclip
50 50 translate
0.050 0.050 scale
0 setgray
newpath
1.000 UL
LTb
LCb setrgbcolor
[] 0 setdash
1210 704 M
63 0 V
5682 0 R
-63 0 V
stroke
LTb
1210 1028 M
31 0 V
5714 0 R
-31 0 V
1210 1218 M
31 0 V
5714 0 R
-31 0 V
1210 1353 M
31 0 V
5714 0 R
-31 0 V
1210 1457 M
31 0 V
5714 0 R
-31 0 V
-5714 86 R
31 0 V
5714 0 R
-31 0 V
-5714 72 R
31 0 V
5714 0 R
-31 0 V
-5714 62 R
31 0 V
5714 0 R
-31 0 V
-5714 55 R
31 0 V
5714 0 R
-31 0 V
-5714 50 R
63 0 V
5682 0 R
-63 0 V
stroke
1210 2106 M
31 0 V
5714 0 R
-31 0 V
1210 2296 M
31 0 V
5714 0 R
-31 0 V
1210 2430 M
31 0 V
5714 0 R
-31 0 V
1210 2535 M
31 0 V
5714 0 R
-31 0 V
-5714 85 R
31 0 V
5714 0 R
-31 0 V
-5714 72 R
31 0 V
5714 0 R
-31 0 V
-5714 63 R
31 0 V
5714 0 R
-31 0 V
-5714 55 R
31 0 V
5714 0 R
-31 0 V
-5714 49 R
63 0 V
5682 0 R
-63 0 V
stroke
1210 3184 M
31 0 V
5714 0 R
-31 0 V
1210 3374 M
31 0 V
5714 0 R
-31 0 V
1210 3508 M
31 0 V
5714 0 R
-31 0 V
1210 3613 M
31 0 V
5714 0 R
-31 0 V
-5714 85 R
31 0 V
5714 0 R
-31 0 V
-5714 72 R
31 0 V
5714 0 R
-31 0 V
-5714 63 R
31 0 V
5714 0 R
-31 0 V
-5714 55 R
31 0 V
5714 0 R
-31 0 V
-5714 49 R
63 0 V
5682 0 R
-63 0 V
stroke
1210 704 M
0 63 V
0 3170 R
0 -63 V
stroke
2031 704 M
0 63 V
0 3170 R
0 -63 V
stroke
2851 704 M
0 63 V
0 3170 R
0 -63 V
stroke
3672 704 M
0 63 V
0 3170 R
0 -63 V
stroke
4493 704 M
0 63 V
0 3170 R
0 -63 V
stroke
5314 704 M
0 63 V
0 3170 R
0 -63 V
stroke
6134 704 M
0 63 V
0 3170 R
0 -63 V
stroke
6955 704 M
0 63 V
0 3170 R
0 -63 V
stroke
1.000 UL
LTb
1210 3937 N
0 -3233 V
5745 0 V
0 3233 V
-5745 0 V
Z stroke
1.000 UP
1.000 UL
LTb
% Begin plot #1
0.800 UP
1.500 UL
LTb
0.58 0.00 0.83 C LCb setrgbcolor
0.800 UP
1.500 UL
LTb
0.58 0.00 0.83 C 8143 3827 M
591 0 V
-591 31 R
0 -62 V
591 62 R
0 -62 V
2031 1107 M
0 4 V
-31 -4 R
62 0 V
-62 4 R
62 0 V
379 40 R
0 4 V
-31 -4 R
62 0 V
-62 4 R
62 0 V
379 73 R
0 3 V
-31 -3 R
62 0 V
-62 3 R
62 0 V
380 208 R
0 4 V
-31 -4 R
62 0 V
-62 4 R
62 0 V
379 26 R
0 4 V
-31 -4 R
62 0 V
-62 4 R
62 0 V
380 77 R
0 4 V
-31 -4 R
62 0 V
-62 4 R
62 0 V
379 158 R
0 4 V
-31 -4 R
62 0 V
-62 4 R
62 0 V
379 30 R
0 4 V
-31 -4 R
62 0 V
-62 4 R
62 0 V
380 41 R
0 4 V
-31 -4 R
62 0 V
-62 4 R
62 0 V
379 2 R
0 4 V
-31 -4 R
62 0 V
-62 4 R
62 0 V
379 14 R
0 4 V
-31 -4 R
62 0 V
-62 4 R
62 0 V
380 35 R
0 4 V
-31 -4 R
62 0 V
-62 4 R
62 0 V
2031 1109 CircleF
2441 1153 CircleF
2851 1229 CircleF
3262 1441 CircleF
3672 1471 CircleF
4083 1552 CircleF
4493 1714 CircleF
4903 1748 CircleF
5314 1793 CircleF
5724 1799 CircleF
6134 1817 CircleF
6545 1856 CircleF
8438 3827 CircleF
LTw
% End plot #1
% Begin plot #2
1.500 UL
LTb
LCb setrgbcolor
[] 0 setdash
0.58 0.00 0.83 C 2031 1109 M
410 44 V
410 76 V
411 212 V
410 30 V
411 81 V
410 162 V
410 34 V
411 45 V
410 6 V
410 18 V
411 39 V
stroke
LTw
% End plot #2
% Begin plot #3
0.800 UP
1.500 UL
LTb
LCb setrgbcolor
[] 0 setdash
0.18 0.55 0.34 C LCb setrgbcolor
0.800 UP
1.500 UL
LTb
0.18 0.55 0.34 C 8143 3607 M
591 0 V
-591 31 R
0 -62 V
591 62 R
0 -62 V
2031 922 M
0 4 V
-31 -4 R
62 0 V
-62 4 R
62 0 V
379 185 R
0 3 V
-31 -3 R
62 0 V
-62 3 R
62 0 V
379 152 R
0 4 V
-31 -4 R
62 0 V
-62 4 R
62 0 V
380 96 R
0 4 V
-31 -4 R
62 0 V
-62 4 R
62 0 V
379 287 R
0 4 V
-31 -4 R
62 0 V
-62 4 R
62 0 V
380 61 R
0 4 V
-31 -4 R
62 0 V
-62 4 R
62 0 V
379 157 R
0 4 V
-31 -4 R
62 0 V
-62 4 R
62 0 V
379 56 R
0 4 V
-31 -4 R
62 0 V
-62 4 R
62 0 V
380 20 R
0 5 V
-31 -5 R
62 0 V
-62 5 R
62 0 V
379 56 R
0 5 V
-31 -5 R
62 0 V
-62 5 R
62 0 V
379 20 R
0 5 V
-31 -5 R
62 0 V
-62 5 R
62 0 V
380 -7 R
0 4 V
-31 -4 R
62 0 V
-62 4 R
62 0 V
2031 924 CircleF
2441 1113 CircleF
2851 1268 CircleF
3262 1368 CircleF
3672 1659 CircleF
4083 1724 CircleF
4493 1885 CircleF
4903 1945 CircleF
5314 1969 CircleF
5724 2030 CircleF
6134 2056 CircleF
6545 2053 CircleF
8438 3607 CircleF
LTw
% End plot #3
% Begin plot #4
1.500 UL
LTb
LCb setrgbcolor
[] 0 setdash
0.18 0.55 0.34 C 2031 924 M
410 189 V
410 155 V
411 100 V
410 291 V
411 65 V
410 161 V
410 60 V
411 24 V
410 61 V
410 26 V
411 -3 V
stroke
LTw
% End plot #4
% Begin plot #5
0.800 UP
1.500 UL
LTb
LCb setrgbcolor
[] 0 setdash
0.55 0.00 0.00 C LCb setrgbcolor
0.800 UP
1.500 UL
LTb
0.55 0.00 0.00 C 8143 3387 M
591 0 V
-591 31 R
0 -62 V
591 62 R
0 -62 V
2031 1103 M
0 4 V
-31 -4 R
62 0 V
-62 4 R
62 0 V
379 141 R
0 5 V
-31 -5 R
62 0 V
-62 5 R
62 0 V
379 99 R
0 5 V
-31 -5 R
62 0 V
-62 5 R
62 0 V
380 274 R
0 5 V
-31 -5 R
62 0 V
-62 5 R
62 0 V
379 88 R
0 5 V
-31 -5 R
62 0 V
-62 5 R
62 0 V
380 180 R
0 5 V
-31 -5 R
62 0 V
-62 5 R
62 0 V
379 85 R
0 5 V
-31 -5 R
62 0 V
-62 5 R
62 0 V
379 105 R
0 6 V
-31 -6 R
62 0 V
-62 6 R
62 0 V
380 75 R
0 6 V
-31 -6 R
62 0 V
-62 6 R
62 0 V
379 31 R
0 6 V
-31 -6 R
62 0 V
-62 6 R
62 0 V
379 43 R
0 5 V
-31 -5 R
62 0 V
-62 5 R
62 0 V
380 -6 R
0 6 V
-31 -6 R
62 0 V
-62 6 R
62 0 V
2031 1105 CircleF
2441 1250 CircleF
2851 1354 CircleF
3262 1634 CircleF
3672 1726 CircleF
4083 1912 CircleF
4493 2001 CircleF
4903 2112 CircleF
5314 2193 CircleF
5724 2230 CircleF
6134 2279 CircleF
6545 2278 CircleF
8438 3387 CircleF
LTw
% End plot #5
% Begin plot #6
1.500 UL
LTb
LCb setrgbcolor
[] 0 setdash
0.55 0.00 0.00 C 2031 1105 M
410 145 V
410 104 V
411 280 V
410 92 V
411 186 V
410 89 V
410 111 V
411 81 V
410 37 V
410 49 V
411 -1 V
stroke
LTw
% End plot #6
% Begin plot #7
0.800 UP
1.500 UL
LTb
LCb setrgbcolor
[] 0 setdash
0.00 0.00 1.00 C LCb setrgbcolor
0.800 UP
1.500 UL
LTb
0.00 0.00 1.00 C 8143 3167 M
591 0 V
-591 31 R
0 -62 V
591 62 R
0 -62 V
2031 1181 M
0 4 V
-31 -4 R
62 0 V
-62 4 R
62 0 V
379 161 R
0 4 V
-31 -4 R
62 0 V
-62 4 R
62 0 V
379 74 R
0 4 V
-31 -4 R
62 0 V
-62 4 R
62 0 V
380 141 R
0 5 V
-31 -5 R
62 0 V
-62 5 R
62 0 V
379 202 R
0 5 V
-31 -5 R
62 0 V
-62 5 R
62 0 V
380 217 R
0 6 V
-31 -6 R
62 0 V
-62 6 R
62 0 V
379 189 R
0 6 V
-31 -6 R
62 0 V
-62 6 R
62 0 V
379 113 R
0 5 V
-31 -5 R
62 0 V
-62 5 R
62 0 V
380 72 R
0 5 V
-31 -5 R
62 0 V
-62 5 R
62 0 V
379 49 R
0 6 V
-31 -6 R
62 0 V
-62 6 R
62 0 V
379 25 R
0 5 V
-31 -5 R
62 0 V
-62 5 R
62 0 V
380 29 R
0 5 V
-31 -5 R
62 0 V
-62 5 R
62 0 V
2031 1183 CircleF
2441 1348 CircleF
2851 1426 CircleF
3262 1571 CircleF
3672 1778 CircleF
4083 2001 CircleF
4493 2196 CircleF
4903 2314 CircleF
5314 2391 CircleF
5724 2446 CircleF
6134 2476 CircleF
6545 2510 CircleF
8438 3167 CircleF
LTw
% End plot #7
% Begin plot #8
1.500 UL
LTb
LCb setrgbcolor
[] 0 setdash
0.00 0.00 1.00 C 2031 1183 M
410 165 V
410 78 V
411 145 V
410 207 V
411 223 V
410 195 V
410 118 V
411 77 V
410 55 V
410 30 V
411 34 V
stroke
LTw
% End plot #8
% Begin plot #9
0.800 UP
1.500 UL
LTb
LCb setrgbcolor
[] 0 setdash
0.75 0.25 0.00 C LCb setrgbcolor
0.800 UP
1.500 UL
LTb
0.75 0.25 0.00 C 8143 2947 M
591 0 V
-591 31 R
0 -62 V
591 62 R
0 -62 V
2031 1240 M
0 4 V
-31 -4 R
62 0 V
-62 4 R
62 0 V
379 77 R
0 13 V
-31 -13 R
62 0 V
-62 13 R
62 0 V
379 129 R
0 5 V
-31 -5 R
62 0 V
-62 5 R
62 0 V
380 358 R
0 12 V
-31 -12 R
62 0 V
-62 12 R
62 0 V
379 19 R
0 6 V
-31 -6 R
62 0 V
-62 6 R
62 0 V
380 332 R
0 14 V
-31 -14 R
62 0 V
-62 14 R
62 0 V
379 174 R
0 6 V
-31 -6 R
62 0 V
-62 6 R
62 0 V
379 196 R
0 13 V
-31 -13 R
62 0 V
-62 13 R
62 0 V
380 -34 R
0 6 V
-31 -6 R
62 0 V
-62 6 R
62 0 V
379 163 R
0 13 V
-31 -13 R
62 0 V
-62 13 R
62 0 V
379 -66 R
0 5 V
-31 -5 R
62 0 V
-62 5 R
62 0 V
380 137 R
0 14 V
-31 -14 R
62 0 V
-62 14 R
62 0 V
2031 1242 CircleF
2441 1327 CircleF
2851 1465 CircleF
3262 1832 CircleF
3672 1860 CircleF
4083 2202 CircleF
4493 2386 CircleF
4903 2591 CircleF
5314 2567 CircleF
5724 2739 CircleF
6134 2682 CircleF
6545 2829 CircleF
8438 2947 CircleF
LTw
% End plot #9
% Begin plot #10
1.500 UL
LTb
LCb setrgbcolor
[] 0 setdash
0.75 0.25 0.00 C 2031 1242 M
410 85 V
410 138 V
411 367 V
410 28 V
411 342 V
410 184 V
410 205 V
411 -24 V
410 172 V
410 -57 V
411 147 V
stroke
LTw
% End plot #10
% Begin plot #11
0.800 UP
1.500 UL
LTb
LCb setrgbcolor
[] 0 setdash
0.00 0.00 0.00 C LCb setrgbcolor
0.800 UP
1.500 UL
LTb
0.00 0.00 0.00 C 8143 2727 M
591 0 V
-591 31 R
0 -62 V
591 62 R
0 -62 V
2031 1100 M
0 5 V
-31 -5 R
62 0 V
-62 5 R
62 0 V
379 262 R
0 6 V
-31 -6 R
62 0 V
-62 6 R
62 0 V
379 48 R
0 6 V
-31 -6 R
62 0 V
-62 6 R
62 0 V
380 327 R
0 6 V
-31 -6 R
62 0 V
-62 6 R
62 0 V
379 226 R
0 7 V
-31 -7 R
62 0 V
-62 7 R
62 0 V
380 187 R
0 8 V
-31 -8 R
62 0 V
-62 8 R
62 0 V
379 254 R
0 7 V
-31 -7 R
62 0 V
-62 7 R
62 0 V
379 185 R
0 8 V
-31 -8 R
62 0 V
-62 8 R
62 0 V
380 102 R
0 8 V
-31 -8 R
62 0 V
-62 8 R
62 0 V
379 93 R
0 7 V
-31 -7 R
62 0 V
-62 7 R
62 0 V
379 25 R
0 9 V
-31 -9 R
62 0 V
-62 9 R
62 0 V
380 61 R
0 7 V
-31 -7 R
62 0 V
-62 7 R
62 0 V
2031 1103 CircleF
2441 1370 CircleF
2851 1424 CircleF
3262 1757 CircleF
3672 1989 CircleF
4083 2184 CircleF
4493 2445 CircleF
4903 2638 CircleF
5314 2748 CircleF
5724 2849 CircleF
6134 2882 CircleF
6545 2951 CircleF
8438 2727 CircleF
LTw
% End plot #11
% Begin plot #12
1.500 UL
LTb
LCb setrgbcolor
[] 0 setdash
0.00 0.00 0.00 C 2031 1103 M
410 267 V
410 54 V
411 333 V
410 232 V
411 195 V
410 261 V
410 193 V
411 110 V
410 101 V
410 33 V
411 69 V
stroke
LTw
% End plot #12
% Begin plot #13
0.800 UP
1.500 UL
LTb
LCb setrgbcolor
[] 0 setdash
1.00 0.75 0.13 C LCb setrgbcolor
0.800 UP
1.500 UL
LTb
1.00 0.75 0.13 C 8143 2507 M
591 0 V
-591 31 R
0 -62 V
591 62 R
0 -62 V
2031 1344 M
0 6 V
-31 -6 R
62 0 V
-62 6 R
62 0 V
379 5 R
0 10 V
-31 -10 R
62 0 V
-62 10 R
62 0 V
379 272 R
0 8 V
-31 -8 R
62 0 V
-62 8 R
62 0 V
380 254 R
0 11 V
-31 -11 R
62 0 V
-62 11 R
62 0 V
379 126 R
0 10 V
-31 -10 R
62 0 V
-62 10 R
62 0 V
380 145 R
0 12 V
-31 -12 R
62 0 V
-62 12 R
62 0 V
379 358 R
0 9 V
-31 -9 R
62 0 V
-62 9 R
62 0 V
379 191 R
0 13 V
-31 -13 R
62 0 V
-62 13 R
62 0 V
380 155 R
0 12 V
-31 -12 R
62 0 V
-62 12 R
62 0 V
379 100 R
0 14 V
-31 -14 R
62 0 V
-62 14 R
62 0 V
790 107 R
0 10 V
-31 -10 R
62 0 V
-62 10 R
62 0 V
2031 1347 CircleF
2441 1360 CircleF
2851 1641 CircleF
3262 1904 CircleF
3672 2041 CircleF
4083 2197 CircleF
4493 2566 CircleF
4903 2768 CircleF
5314 2935 CircleF
5724 3048 CircleF
6545 3167 CircleF
8438 2507 CircleF
LTw
% End plot #13
% Begin plot #14
1.500 UL
LTb
LCb setrgbcolor
[] 0 setdash
1.00 0.75 0.13 C 2031 1347 M
410 13 V
410 281 V
411 263 V
410 137 V
411 156 V
410 369 V
410 202 V
411 167 V
410 113 V
821 119 V
stroke
LTw
% End plot #14
% Begin plot #15
0.200 UP
1.000 UL
LTb
LCb setrgbcolor
[] 0 setdash
1.00 0.75 0.13 C 2031 3610 PentF
2441 3578 PentF
2851 3541 PentF
3262 3515 PentF
3672 3492 PentF
4083 3462 PentF
4493 3439 PentF
4903 3432 PentF
5314 3408 PentF
5724 3382 PentF
6545 3359 PentF
LTw
% End plot #15
% Begin plot #16
0.200 UP
1.000 UL
LTb
LCb setrgbcolor
[] 0 setdash
0.00 0.00 0.00 C 2031 3370 C0
2441 3338 C0
2851 3311 C0
3262 3281 C0
3672 3256 C0
4083 3234 C0
4493 3208 C0
4903 3184 C0
5314 3165 C0
5724 3155 C0
6134 3133 C0
6545 3124 C0
LTw
% End plot #16
% Begin plot #17
0.200 UP
1.000 UL
LTb
LCb setrgbcolor
[] 0 setdash
0.75 0.25 0.00 C 2031 3135 C1
2441 3213 C1
2851 3073 C1
3262 3153 C1
3672 3021 C1
4083 3107 C1
4493 2975 C1
4903 3065 C1
5314 2931 C1
5724 3024 C1
6134 2902 C1
6545 3001 C1
LTw
% End plot #17
% Begin plot #18
0.200 UP
1.000 UL
LTb
LCb setrgbcolor
[] 0 setdash
0.00 0.00 1.00 C 2031 2905 C2
2441 2872 C2
2851 2841 C2
3262 2813 C2
3672 2788 C2
4083 2765 C2
4493 2742 C2
4903 2722 C2
5314 2708 C2
5724 2688 C2
6134 2672 C2
6545 2662 C2
LTw
% End plot #18
% Begin plot #19
0.200 UP
1.000 UL
LTb
LCb setrgbcolor
[] 0 setdash
0.55 0.00 0.00 C 2031 2680 C3
2441 2651 C3
2851 2618 C3
3262 2597 C3
3672 2567 C3
4083 2541 C3
4493 2521 C3
4903 2504 C3
5314 2488 C3
5724 2466 C3
6134 2450 C3
6545 2431 C3
LTw
% End plot #19
% Begin plot #20
0.200 UP
1.000 UL
LTb
LCb setrgbcolor
[] 0 setdash
0.18 0.55 0.34 C 2031 2461 C4
2441 2431 C4
2851 2398 C4
3262 2368 C4
3672 2345 C4
4083 2322 C4
4493 2299 C4
4903 2276 C4
5314 2259 C4
5724 2247 C4
6134 2227 C4
6545 2212 C4
LTw
% End plot #20
% Begin plot #21
0.200 UP
1.000 UL
LTb
LCb setrgbcolor
[] 0 setdash
0.58 0.00 0.83 C 2031 2243 C5
2441 2210 C5
2851 2177 C5
3262 2150 C5
3672 2123 C5
4083 2100 C5
4493 2081 C5
4903 2060 C5
5314 2042 C5
5724 2025 C5
6134 2010 C5
6545 1994 C5
LTw
% End plot #21
2.000 UL
LTb
LCb setrgbcolor
[] 0 setdash
1.000 UL
LTb
1210 3937 N
0 -3233 V
5745 0 V
0 3233 V
-5745 0 V
Z stroke
1.000 UP
1.000 UL
LTb
stroke
grestore
end
showpage
%%Trailer
